[
null,
{"id":1,"flags":[16,1551,1551,1551,1536,1536,1536,1551,1536,1536,1536,1536,1536,1551,1551,1536,1536,1536,1551,1536,1536,1551,1536,1536,1551,1536,1552,1552,1552,1552,1552,1552,1552,1552,1551,1551,1551,1551,1551,1551,1552,1552,1551,1551,1551,1551,1551,1551,1551,1551,1551,1551,1551,1551,1551,1551,1536,1536,1536,1536,1536,1536,1536,1536,1536,1536,1536,1536,1536,1536,1536,1536,1536,1536,1536,1536,1536,1536,1536,1536,1536,1536,1536,1536,1536,1536,1536,1536,1551,1551,1551,1551,1551,1551,1551,1551,1536,1536,1536,1536,1536,1536,1536,1536,1536,1536,1551,1551,1536,1536,1551,1551,1551,1551,1551,1551,1551,1552,1536,1536,1536,1536,1536,1536,1536,1536,1536,1536,1551,1551,1551,1551,1551,1551,1551,1551,1536,1536,1536,1536,1536,1536,1536,1536,1551,1551,1551,1551,1551,1551,1551,1551,1536,1536,1536,1536,1536,1536,1536,1536,1551,1551,1551,1551,1551,1551,1551,1551,1536,1536,1536,1536,1536,1536,1536,1536,1551,1551,1551,1551,1551,1551,1551,1536,1551,1551,1551,1536,1536,1536,1536,1536,1551,1536,1551,1536,1536,1536,1536,1536,1551,1551,1551,1551,1551,1551,1551,1551,1551,1536,1551,1551,1551,1551,1551,1551,1551,1551,1551,1551,1551,1551,1551,1551,1551,1551,1551,1551,1551,1551,1551,1551,1552,1552,1552,1552,1552,1552,1552,1552,1552,1552,1552,1552,1552,1552,1552,1552,1552,1552,1536,1536,1552,1552,1552,1552,1551,1551,1551,1551,1536,1536,1536,1536,1536,1536,1551,1551,1551,1551,1551,1536,1536,1551,1536,1551,1536,1551,1551,1551,1536,1536,1551,1552,1552,1552,1552,1536,1536,1536,1536,1551,1551,1551,1551,1536,1536,1536,1536,1551,1551,1551,1551,1536,1536,1536,1536,1551,1551,1551,1551,1536,1536,1536,1536,1536,1536,1536,1536,1536,1536,1536,1536,1536,1536,1536,1536,1536,1551,1551,1551,1551,1551,1551,1551,1551,1536,1536,1536,1536,1536,1536,1536,1536,1551,1551,1551,1551,1551,1551,1551,1551,1536,1536,1536,1536,1536,1536,1536,1536,1536,1536,1551,1551,1536,1536,1551,1551,1551,1551,1551,1551,1551,1551,1551,1551,1536,1536,1536,1536,1536,1536,1536,1536,1551,1551,1551,1551,1551,1551,1551,1551,1536,1536,1536,1536,1536,1536,1551,1551,1551,1551,1551,1551,1551,1551,1551,1551,1536,1536,1536,1536,1536,1536,1551,1551,1551,1551,1551,1551,1551,1551,1536,1551,1536,1536,1536,1536,1536,1536,1536,1536,1551,1551,1551,1551,1551,1551,1551,1551,1536,1536,1536,1536,1536,1536,1536,1536,1551,1551,1551,1551,1551,1551,1551,1551,1551,1536,1551,1551,1551,1551,1551,1551,1551,1551,1551,1551,1551,1551,1551,1551,1551,1551,1551,1551,1551,1551,1551,1551,1551,1551,1551,1551,1551,1551,1551,1551,1551,1551,1551,1551,1551,1551,1551,1551,1536,1536,1536,1536,1536,1536,1536,1536,1536,1536,1536,1536,1536,1536,1536,1536,1536,1536,1536,1536,1536,1536,1536,1536,1536,1536,1536,1536,1536,1536,1536,1536,1536,1536,1536,1536,1536,1536,1536,1536,1536,1536,1536,1536,1536,1536,1536,1536,1536,1536,1536,1536,1536,1536,1536,1536,1536,1536,1536,1536,1536,1536,1536,1536,1536,1536,1536,1536,1536,1536,1536,1536,1536,1536,1536,1536,1536,1536,1536,1536,1536,1536,1536,1536,1536,1536,1536,1536,1536,1536,1536,1536,1536,1536,1536,1536,1536,1536,1536,1536,1536,1536,1536,1536,1536,1536,1536,1536,1536,1536,1536,1536,1536,1536,1536,1536,1536,1536,1536,1536,1536,1536,1536,1536,1536,1536,1536,1536,1536,1536,1536,1536,1536,1536,1536,1536,1536,1536,1536,1536,1536,1536,1536,1536,1536,1536,1536,1536,1536,1536,1536,1536,1536,1536,1536,1536,1536,1536,1536,1536,1536,1536,1536,1536,1536,1536,1536,1536,1536,1536,1536,1536,1536,1536,1536,1536,1536,1536,1536,1536,1536,1536,1536,1536,1536,1536,1536,1536,1536,1536,1536,1536,1536,1536,1536,1536,1536,1536,1536,1536,1536,1536,1536,1536,1536,1536,1536,1536,1536,1536,1536,1536,1536,1536,1536,1536,1536,1536,1536,1536,1536,1536,1536,1536,1536,1536,1536,1536,1536,1536,1536,1536,1536,1536,1536,1536,1536,1536,1536,1536,1536,1536,1536,1536,1536,1536,1536,1536,1536,1536,1536,1536,1536,1536,1536,1536,1536,1536,1536,1536,1536,1536,1536,1536,1536,1536,1536,1536,1536,1536,1536,1536,1536,1536,1536,1536,1536,1536,1536,1536,1536,1536,1536,1536,1536,1536,1536,1536,1536,1536,1536,1536,1536,1536,1536,1536,1536,1536,1536,1536,1536,1536,1536,1536,1536,1536,1536,1536,1536,1536,1536,1536,1536,1536,1536,1536,1536,1536,1536,1536,1536,1536,1536,1536,1536,1536,1536,1536,1536,1536,1536,1536,1536,1536,1536,1536,1536,1536,1536,1536,1536,1536,1536,1536,1536,1536,1536,1536,1536,1536,1536,1536,1536,1536,1536,1536,1536,1536,1536,1536,1536,1536,1536,1536,1536,1536,1536,1536,1536,1536,1536,1536,1536,1536,1536,1536,1536,1536,1536,1536,1536,1536,1536,1536,1536,1536,1536,1536,1536,1536,1536,1536,1536,1536,1536,1536,1536,1536,1536,1536,1536,1536,1536,1536,1536,1536,1536,1536,1536,1536,1536,1536,1536,1536,1536,1536,1536,1536,1536,1536,1536,1536,1536,1536,1536,1536,1536,1536,1536,1536,1536,1536,1536,1536,1536,1536,1536,1536,1536,1536,1536,1536,1536,1536,1536,1536,1536,1536,1536,1536,1536,1536,1536,1536,1536,1536,1536,1536,1536,1536,1536,1536,1536,1536,1536,1536,1536,1536,1536,1536,1536,1536,1536,1536,1536,1536,1536,1536,1536,1536,1536,1536,1536,1536,1536,1536,1536,1536,1536,1536,1536,1536,1536,1536,1536,1536,1536,1536,1536,1536,1536,1536,1536,1536,1536,1536,1536,1536,1536,1536,1536,1536,1536,1536,1536,1536,1536,1536,1536,1536,1536,1536,1536,1536,1536,1536,1536,1536,1536,1536,1536,1536,1536,1536,1536,1536,1536,1536,1536,1536,1536,1536,1536,1536,1536,1536,1536,1536,1536,1536,1536,1536,1536,1536,1536,1536,1536,1536,1536,1536,1536,1536,1536,1536,1536,1536,1536,1536,1536,1536,1536,1536,1536,1536,1536,1536,1536,1536,1536,1536,1536,1536,1536,1536,1536,1536,1536,1536,1536,1536,1536,1536,1536,1536,1536,1536,1536,1536,1536,1536,1536,1536,1536,1536,1536,1536,1536,1536,1536,1536,1536,1536,1536,1536,1536,1536,1536,1536,1536,1536,1536,1536,1536,1536,1536,1536,1536,1536,1536,1536,1536,1536,1536,1536,1536,1536,1536,1536,1536,1536,1536,1536,1536,1536,1536,1536,1536,1536,1536,1536,1536,1536,1536,1536,1536,1536,1536,1536,1536,1536,1536,1536,1536,1536,1536,1536,1536,1536,1536,1536,1536,1536,1536,1536,1536,1536,1536,1536,1536,1536,1536,1536,1536,1536,1536,1536,1536,1536,1536,1536,1536,1536,1536,1536,1536,1536,1536,1536,1536,1536,1536,1536,1536,1536,1536,1536,1536,1536,1536,1536,1536,1536,1536,1536,1536,1536,1536,1536,1536,1536,1536,1536,1536,1536,1536,1536,1536,1536,1536,1536,1536,1536,1536,1536,1536,1536,1536,1536,1536,1536,1536,1536,1536,1536,1536,1536,1536,1536,1536,1536,1536,1536,1536,1536,1536,1536,1536,1536,1536,1536,1536,1536,1536,1536,1536,1536,1536,1536,1536,1536,1536,1536,1536,1536,1536,1536,1536,1536,1536,1536,1536,1536,1536,1536,1536,1536,1536,1536,1536,1536,1536,1536,1536,1536,1536,1536,1536,1536,1536,1536,1536,1536,1536,1536,1536,1536,1536,1536,1536,1536,1536,1536,1536,1536,1536,1536,1536,1536,1536,1536,1536,1536,1536,1536,1536,1536,1536,1536,1536,1536,1536,1536,1536,1536,1536,1536,1536,1536,1536,1536,1536,1536,1536,1536,1536,1536,1536,1536,1536,1536,1536,1536,1536,1536,1536,1536,1536,1536,1536,1536,1536,1536,1536,1536,1536,1536,1536,1536,1536,1536,1536,1536,1536,1536,1536,1536,1536,1536,1536,1536,1536,1536,1536,1536,1536,1536,1536,1536,1536,1536,1536,1536,1536,1536,1536,1536,1536,1536,1536,1536,1536,1536,1536,1536,1536,1536,1536,1536,1536,1536,1536,1536,1536,1536,1536,1536,1536,1536,1536,1536,1536,1536,1536,1536,1536,1536,1536,1536,1536,1536,1536,1536,1536,1536,1536,1536,1536,1536,1536,1536,1536,1536,1536,1536,1536,1536,1536,1536,1536,1536,1536,1536,1536,1536,1536,1536,1536,1536,1536,1536,1536,1536,1536,1536,1536,1536,1536,1536,1536,1536,1536,1536,1536,1536,1536,1536,1536,1536,1536,1536,1536,1536,1536,1536,1536,1536,1536,1536,1536,1536,1536,1536,1536,1536,1536,1536,1536,1536,1536,1536,1536,1536,1536,1536,1536,1536,1536,1536,1536,1536,1536,1536,1536,1536,1536,1536,1536,1536,1536,1536,1536,1536,1536,1536,1536,1536,1536,1536,1536,1536,1536,1536,1536,1536,1536,1536,1536,1536,1536,1536,1536,1536,1536,1536,1536,1536,1536,1536,1536,1536,1536,1536,1536,1536,1536,1536,1536,1536,1536,1536,1536,1536,1536,1536,1536,1536,1536,1536,1536,1536,1536,1536,1536,1536,1536,1536,1536,1536,1536,1536,1536,1536,1536,1536,1536,1536,1536,1536,1536,1536,1536,1536,1536,1536,1536,1536,1536,1536,1536,1536,1536,1536,1536,1536,1536,1536,1536,1536,1536,1536,1536,1536,1536,1536,1536,1536,1536,1536,1536,1536,1536,1536,1536,1536,1536,1536,1536,1536,1536,1536,1536,1536,1536,1536,1536,1536,1536,1536,1536,1536,1536,1536,1536,1536,1536,1536,1536,1536,1536,1536,1536,1536,1536,1536,1536,1536,1536,1536,1536,1536,1536,1536,1536,1536,1536,1536,1536,1536,1536,1536,1536,1536,1536,1536,1536,1536,1536,1536,1536,1536,1536,1536,1536,1536,1536,1536,1536,1536,1536,1536,1536,1536,1536,1536,1536,1536,1536,1536,1536,1536,1536,1536,1536,1536,1536,1536,1536,1536,1536,1536,1536,1536,1536,1536,1536,1536,1536,1536,1536,1536,1536,1536,1536,1536,1536,1536,1536,1536,1536,1536,1536,1536,1536,1536,1536,1536,1536,1536,1536,1536,1536,1536,1536,1536,1536,1536,1536,1536,1536,1536,1536,1536,1536,1536,1536,1536,1536,1536,1536,1536,1536,1536,1536,1536,1536,1536,1536,1536,1536,1536,1536,1536,1536,1536,1536,1536,1536,1536,1536,1536,1536,1536,1536,1536,1536,1536,1536,1536,1536,1536,1536,1536,1536,1536,1536,1536,1536,1536,1536,1536,1536,1536,1536,1536,1536,1536,1536,1536,1536,1536,1536,1536,1536,1536,1536,1536,1536,1536,1536,1536,1536,1536,1536,1536,1536,1536,1536,1536,1536,1536,1536,1536,1536,1536,1536,1536,1536,1536,1536,1536,1536,1536,1536,1536,1536,1536,1536,1536,1536,1536,1536,1536,1536,1536,1536,1536,1536,1536,1536,1536,1536,1536,1536,1536,1536,1536,1536,1536,1536,1536,1536,1536,1536,1536,1536,1536,1536,1536,1536,1536,1536,1536,1536,1536,1536,1536,1536,1536,1536,1536,1536,1536,1536,1536,1536,1536,1536,1536,1536,1536,1536,1536,1536,1536,1536,1536,1536,1536,1536,1536,1536,1536,1536,1536,1536,1536,1536,1536,1536,1536,1536,1536,1536,1536,1536,1536,1536,1536,1536,1536,1536,1536,1536,1536,1536,1536,1536,1536,1536,1536,1536,1536,1536,1536,1536,1536,1536,1536,1536,1536,1536,1536,1536,1536,1536,1536,1536,1536,1536,1536,1536,1536,1536,1536,1536,1536,1536,1536,1536,1536,1536,1536,1536,1536,1536,1536,1536,1536,1536,1536,1536,1536,1536,1536,1536,1536,1536,1536,1536,1536,1536,1536,1536,1536,1536,1536,1536,1536,1536,1536,1536,1536,1536,1536,1536,1536,1536,1536,1536,1536,1536,1536,1536,1536,1536,1536,1536,1536,1536,1536,1536,1536,1536,1536,1536,1536,1536,1536,1536,1536,1536,1536,1536,1536,1536,1536,1536,1536,1536,1536,1536,1536,1536,1536,1536,1536,1536,1536,1536,1536,1536,1536,2063,2063,2063,2063,2063,2063,2063,2063,2063,2063,2063,2063,2063,2063,2063,2063,2063,2063,2063,2063,2063,2063,2063,2063,2063,2063,2063,2063,2063,2063,2063,2063,2063,2063,2063,2063,2063,2063,2063,2063,2063,2063,2063,2063,2063,2063,2063,2063,2575,2575,2575,2575,2575,2575,2575,2575,2575,2575,2575,2575,2575,2575,2575,2575,2575,2575,2575,2575,2575,2575,2575,2575,2575,2575,2575,2575,2575,2575,2575,2575,2575,2575,2575,2575,2575,2575,2575,2575,2575,2575,2575,2575,2575,2575,2575,2575,3599,3599,3599,3599,3599,3599,3599,3599,3599,3599,3599,3599,3599,3599,3599,3599,3599,3599,3599,3599,3599,3599,3599,3599,3599,3599,3599,3599,3599,3599,3599,3599,3599,3599,3599,3599,3599,3599,3599,3599,3599,3599,3599,3599,3599,3599,3599,3599,3599,3599,3599,3599,3599,3599,3599,3599,3599,3599,3599,3599,3599,3599,3599,3599,3599,3599,3599,3599,3599,3599,3599,3599,3599,3599,3599,3599,3599,3599,3599,3599,3599,3599,3599,3599,3599,3599,3599,3599,3599,3599,3599,3599,3599,3599,3599,3599,3904,3904,3904,3904,3904,3904,3904,3904,3904,3904,3904,3904,3904,3904,3904,3904,3904,3904,3904,3904,3904,3904,3904,3904,3904,3904,3904,3904,3904,3904,3904,3904,3904,3904,3904,3904,3904,3904,3904,3904,3904,3904,3904,3904,3904,3904,3904,3904,3904,3904,3904,3904,3904,3904,3904,3904,3904,3904,3904,3904,3904,3904,3904,3904,3904,3904,3904,3904,3904,3904,3904,3904,3904,3904,3904,3904,3904,3904,3904,3904,3904,3904,3904,3904,3904,3904,3904,3904,3904,3904,3904,3904,3904,3904,3904,3904,2063,2063,2063,2063,2063,2063,2063,2063,2063,2063,2063,2063,2063,2063,2063,2063,2063,2063,2063,2063,2063,2063,2063,2063,2063,2063,2063,2063,2063,2063,2063,2063,2063,2063,2063,2063,2063,2063,2063,2063,2063,2063,2063,2063,2063,2063,2063,2063,3599,3599,3599,3599,3599,3599,3599,3599,3599,3599,3599,3599,3599,3599,3599,3599,3599,3599,3599,3599,3599,3599,3599,3599,3599,3599,3599,3599,3599,3599,3599,3599,3599,3599,3599,3599,3599,3599,3599,3599,3599,3599,3599,3599,3599,3599,3599,3599,2063,2063,2063,2063,2063,2063,2063,2063,2063,2063,2063,2063,2063,2063,2063,2063,2063,2063,2063,2063,2063,2063,2063,2063,2063,2063,2063,2063,2063,2063,2063,2063,2063,2063,2063,2063,2063,2063,2063,2063,2063,2063,2063,2063,2063,2063,2063,2063,3599,3599,3599,3599,3599,3599,3599,3599,3599,3599,3599,3599,3599,3599,3599,3599,3599,3599,3599,3599,3599,3599,3599,3599,3599,3599,3599,3599,3599,3599,3599,3599,3599,3599,3599,3599,3599,3599,3599,3599,3599,3599,3599,3599,3599,3599,3599,3599,3584,3584,3584,3584,3584,3584,3584,3584,3584,3584,3584,3584,3584,3584,3584,3584,3584,3584,3584,3584,3584,3584,3584,3584,3584,3584,3584,3584,3584,3584,3584,3584,3584,3584,3584,3584,3584,3584,3584,3584,3584,3584,3584,3584,3584,3584,3584,3584,3599,3599,3599,3599,3599,3599,3599,3599,3599,3599,3599,3599,3599,3599,3599,3599,3599,3599,3599,3599,3599,3599,3599,3599,3599,3599,3599,3599,3599,3599,3599,3599,3599,3599,3599,3599,3599,3599,3599,3599,3599,3599,3599,3599,3599,3599,3599,3599,2063,2063,2063,2063,2063,2063,2063,2063,2063,2063,2063,2063,2063,2063,2063,2063,2063,2063,2063,2063,2063,2063,2063,2063,2063,2063,2063,2063,2063,2063,2063,2063,2063,2063,2063,2063,2063,2063,2063,2063,2063,2063,2063,2063,2063,2063,2063,2063,3599,3599,3599,3599,3599,3599,3599,3599,3599,3599,3599,3599,3599,3599,3599,3599,3599,3599,3599,3599,3599,3599,3599,3599,3599,3599,3599,3599,3599,3599,3599,3599,3599,3599,3599,3599,3599,3599,3599,3599,3599,3599,3599,3599,3599,3599,3599,3599,2063,2063,2063,2063,2063,2063,2063,2063,2063,2063,2063,2063,2063,2063,2063,2063,2063,2063,2063,2063,2063,2063,2063,2063,2063,2063,2063,2063,2063,2063,2063,2063,2063,2063,2063,2063,2063,2063,2063,2063,2063,2063,2063,2063,2063,2063,2063,2063,3599,3599,3599,3599,3599,3599,3599,3599,3599,3599,3599,3599,3599,3599,3599,3599,3599,3599,3599,3599,3599,3599,3599,3599,3599,3599,3599,3599,3599,3599,3599,3599,3599,3599,3599,3599,3599,3599,3599,3599,3599,3599,3599,3599,3599,3599,3599,3599,1536,1536,1536,1536,1536,1536,1536,1536,1536,1536,1536,1536,1536,1536,1536,1536,1536,1536,1536,1536,1536,1536,1536,1536,1536,1536,1536,1536,1536,1536,1536,1536,1536,1536,1536,1536,1536,1536,1536,1536,1536,1536,1536,1536,1536,1536,1536,1536,1536,1536,1536,1536,1536,1536,1536,1536,1536,1536,1536,1536,1536,1536,1536,1536,1536,1536,1536,1536,1536,1536,1536,1536,1536,1536,1536,1536,1536,1536,1536,1536,1536,1536,1536,1536,1536,1536,1536,1536,1536,1536,1536,1536,1536,1536,1536,1536,1536,1536,1536,1536,1536,1536,1536,1536,1536,1536,1536,1536,1536,1536,1536,1536,1536,1536,1536,1536,1536,1536,1536,1536,1536,1536,1536,1536,1536,1536,1536,1536,1536,1536,1536,1536,1536,1536,1536,1536,1536,1536,1536,1536,1536,1536,1536,1536,1536,1536,1536,1536,1536,1536,1536,1536,1536,1536,1536,1536,1536,1536,1536,1536,1536,1536,1536,1536,1536,1536,1536,1536,1536,1536,1536,1536,1536,1536,1536,1536,1536,1536,1536,1536,1536,1536,1536,1536,1536,1536,1536,1536,1536,1536,1536,1536,3648,3648,3648,3648,3648,3648,3648,3648,3648,3648,3648,3648,3648,3648,3648,3648,3648,3648,3648,3648,3648,3648,3648,3648,3648,3648,3648,3648,3648,3648,3648,3648,3648,3648,3648,3648,3648,3648,3584,3584,3584,3584,3648,3584,3584,3584,3584,3648,3648,3648,3648,3648,3648,3648,3648,3648,3648,3648,3648,3648,3648,3648,3648,3648,3648,3648,3648,3648,3648,3648,3648,3648,3648,3648,3648,3648,3648,3648,3648,3648,3648,3648,3648,3648,3648,3648,3584,3584,3584,3584,3648,3584,3584,3584,3584,3648,1536,1536,1536,1536,1536,1536,1536,1536,1536,1536,1536,1536,1536,1536,1536,1536,1536,1536,1536,1536,1536,1536,1536,1536,1536,1536,1536,1536,1536,1536,1536,1536,1536,1536,1536,1536,1536,1536,1536,1536,1536,1536,1536,1536,1536,1536,1536,1536,3599,3599,3599,3599,3599,3599,3599,3599,3599,3599,3599,3599,3599,3599,3599,3599,3599,3599,3599,3599,3599,3599,3599,3599,3599,3599,3599,3599,3599,3599,3599,3599,3599,3599,3599,3599,3599,3599,3599,3599,3599,3599,3599,3599,3599,3599,3599,3599,1536,1536,1536,1536,1536,1536,1536,1536,1536,1536,1536,1536,1536,1536,1536,1536,1536,1536,1536,1536,1536,1536,1536,1536,1536,1536,1536,1536,1536,1536,1536,1536,1536,1536,1536,1536,1536,1536,1536,1536,1536,1536,1536,1536,1536,1536,1536,1536,1536,1536,1536,1536,1536,1536,1536,1536,1536,1536,1536,1536,1536,1536,1536,1536,1536,1536,1536,1536,1536,1536,1536,1536,1536,1536,1536,1536,1536,1536,1536,1536,1536,1536,1536,1536,1536,1536,1536,1536,1536,1536,1536,1536,1536,1536,1536,1536,1536,1536,1536,1536,1536,1536,1536,1536,1536,1536,1536,1536,1536,1536,1536,1536,1536,1536,1536,1536,1536,1536,1536,1536,1536,1536,1536,1536,1536,1536,1536,1536,1536,1536,1536,1536,1536,1536,1536,1536,1536,1536,1536,1536,1536,1536,1536,1536,1536,1536,1536,1536,1536,1536,1536,1536,1536,1536,1536,1536,1536,1536,1536,1536,1536,1536,1536,1536,1536,1536,1536,1536,1536,1536,1536,1536,1536,1536,1536,1536,1536,1536,1536,1536,1536,1536,1536,1536,1536,1536,1536,1536,1536,1536,1536,1536,3648,3648,3648,3648,3648,3648,3648,3648,3648,3648,3648,3648,3648,3648,3648,3648,3648,3648,3648,3648,3648,3648,3648,3648,3648,3648,3648,3648,3648,3648,3648,3648,3648,3648,3648,3648,3648,3648,3584,3584,3584,3584,3648,3584,3584,3584,3584,3648,1536,1536,1536,1536,1536,1536,1536,1536,1536,1536,1536,1536,1536,1536,1536,1536,1536,1536,1536,1536,1536,1536,1536,1536,1536,1536,1536,1536,1536,1536,1536,1536,1536,1536,1536,1536,1536,1536,1536,1536,1536,1536,1536,1536,1536,1536,1536,1536,1536,1536,1536,1536,1536,1536,1536,1536,1536,1536,1536,1536,1536,1536,1536,1536,1536,1536,1536,1536,1536,1536,1536,1536,1536,1536,1536,1536,1536,1536,1536,1536,1536,1536,1536,1536,1536,1536,1536,1536,1536,1536,1536,1536,1536,1536,1536,1536,3599,3599,3599,3599,3599,3599,3599,3599,3599,3599,3599,3599,3599,3599,3599,3599,3599,3599,3599,3599,3599,3599,3599,3599,3599,3599,3599,3599,3599,3599,3599,3599,3599,3599,3599,3599,3599,3599,3599,3599,3599,3599,3599,3599,3599,3599,3599,3599,1536,1536,1536,1536,1536,1536,1536,1536,1536,1536,1536,1536,1536,1536,1536,1536,1536,1536,1536,1536,1536,1536,1536,1536,1536,1536,1536,1536,1536,1536,1536,1536,1536,1536,1536,1536,1536,1536,1536,1536,1536,1536,1536,1536,1536,1536,1536,1536,1536,1536,1536,1536,1536,1536,1536,1536,1536,1536,1536,1536,1536,1536,1536,1536,1536,1536,1536,1536,1536,1536,1536,1536,1536,1536,1536,1536,1536,1536,1536,1536,1536,1536,1536,1536,1536,1536,1536,1536,1536,1536,1536,1536,1536,1536,1536,1536,1536,1536,1536,1536,1536,1536,1536,1536,1536,1536,1536,1536,1536,1536,1536,1536,1536,1536,1536,1536,1536,1536,1536,1536,1536,1536,1536,1536,1536,1536,1536,1536,1536,1536,1536,1536,1536,1536,1536,1536,1536,1536,1536,1536,1536,1536,1536,1536,1536,1536,1536,1536,1536,1536,1536,1536,1536,1536,1536,1536,1536,1536,1536,1536,1536,1536,1536,1536,1536,1536,1536,1536,1536,1536,1536,1536,1536,1536,1536,1536,1536,1536,1536,1536,1536,1536,1536,1536,1536,1536,1536,1536,1536,1536,1536,1536,3648,3648,3648,3648,3648,3648,3648,3648,3648,3648,3648,3648,3648,3648,3648,3648,3648,3648,3648,3648,3648,3648,3648,3648,3648,3648,3648,3648,3648,3648,3648,3648,3648,3648,3648,3648,3648,3648,3584,3584,3584,3584,3648,3584,3584,3584,3584,3648,1536,1536,1536,1536,1536,1536,1536,1536,1536,1536,1536,1536,1536,1536,1536,1536,1536,1536,1536,1536,1536,1536,1536,1536,1536,1536,1536,1536,1536,1536,1536,1536,1536,1536,1536,1536,1536,1536,1536,1536,1536,1536,1536,1536,1536,1536,1536,1536,1536,1536,1536,1536,1536,1536,1536,1536,1536,1536,1536,1536,1536,1536,1536,1536,1536,1536,1536,1536,1536,1536,1536,1536,1536,1536,1536,1536,1536,1536,1536,1536,1536,1536,1536,1536,1536,1536,1536,1536,1536,1536,1536,1536,1536,1536,1536,1536,3599,3599,3599,3599,3599,3599,3599,3599,3599,3599,3599,3599,3599,3599,3599,3599,3599,3599,3599,3599,3599,3599,3599,3599,3599,3599,3599,3599,3599,3599,3599,3599,3599,3599,3599,3599,3599,3599,3599,3599,3599,3599,3599,3599,3599,3599,3599,3599,1536,1536,1536,1536,1536,1536,1536,1536,1536,1536,1536,1536,1536,1536,1536,1536,1536,1536,1536,1536,1536,1536,1536,1536,1536,1536,1536,1536,1536,1536,1536,1536,1536,1536,1536,1536,1536,1536,1536,1536,1536,1536,1536,1536,1536,1536,1536,1536,1536,1536,1536,1536,1536,1536,1536,1536,1536,1536,1536,1536,1536,1536,1536,1536,1536,1536,1536,1536,1536,1536,1536,1536,1536,1536,1536,1536,1536,1536,1536,1536,1536,1536,1536,1536,1536,1536,1536,1536,1536,1536,1536,1536,1536,1536,1536,1536,1536,1536,1536,1536,1536,1536,1536,1536,1536,1536,1536,1536,1536,1536,1536,1536,1536,1536,1536,1536,1536,1536,1536,1536,1536,1536,1536,1536,1536,1536,1536,1536,1536,1536,1536,1536,1536,1536,1536,1536,1536,1536,1536,1536,1536,1536,1536,1536,3599,3599,3599,3599,3599,3599,3599,3599,3599,3599,3599,3599,3599,3599,3599,3599,3599,3599,3599,3599,3599,3599,3599,3599,3599,3599,3599,3599,3599,3599,3599,3599,3599,3599,3599,3599,3599,3599,3599,3599,3599,3599,3599,3599,3599,3599,3599,3599,3648,3648,3648,3648,3648,3648,3648,3648,3648,3648,3648,3648,3648,3648,3648,3648,3648,3648,3648,3648,3648,3648,3648,3648,3648,3648,3648,3648,3648,3648,3648,3648,3648,3648,3648,3648,3648,3648,3584,3584,3584,3584,3648,3584,3584,3584,3584,3648,3599,3599,3599,3599,3599,3599,3599,3599,3599,3599,3599,3599,3599,3599,3599,3599,3599,3599,3599,3599,3599,3599,3599,3599,3599,3599,3599,3599,3599,3599,3599,3599,3599,3599,3599,3599,3599,3599,3599,3599,3599,3599,3599,3599,3599,3599,3599,3599,1536,1536,1536,1536,1536,1536,1536,1536,1536,1536,1536,1536,1536,1536,1536,1536,1536,1536,1536,1536,1536,1536,1536,1536,1536,1536,1536,1536,1536,1536,1536,1536,1536,1536,1536,1536,1536,1536,1536,1536,1536,1536,1536,1536,1536,1536,1536,1536,3599,3599,3599,3599,3599,3599,3599,3599,3599,3599,3599,3599,3599,3599,3599,3599,3599,3599,3599,3599,3599,3599,3599,3599,3599,3599,3599,3599,3599,3599,3599,3599,3599,3599,3599,3599,3599,3599,3599,3599,3599,3599,3599,3599,3599,3599,3599,3599,3599,3599,3599,3599,3599,3599,3599,3599,3599,3599,3599,3599,3599,3599,3599,3599,3599,3599,3599,3599,3599,3599,3599,3599,3599,3599,3599,3599,3599,3599,3599,3599,3599,3599,3599,3599,3599,3599,3599,3599,3599,3599,3599,3599,3599,3599,3599,3599,3599,3599,3599,3599,3599,3599,3599,3599,3599,3599,3599,3599,3599,3599,3599,3599,3599,3599,3599,3599,3599,3599,3599,3599,3599,3599,3599,3599,3599,3599,3599,3599,3599,3599,3599,3599,3599,3599,3599,3599,3599,3599,3599,3599,3599,3599,3599,3599,3599,3599,3599,3599,3599,3599,3599,3599,3599,3599,3599,3599,3599,3599,3599,3599,3599,3599,3599,3599,3599,3599,3599,3599,3599,3599,3599,3599,3599,3599,3599,3599,3599,3599,3599,3599,3599,3599,3599,3599,3599,3599,3599,3599,3599,3599,3599,3599,3599,3599,3599,3599,3599,3599,3599,3599,3599,3599,3599,3599,3599,3599,3599,3599,3599,3599,3599,3599,3599,3599,3599,3599,3599,3599,3599,3599,3599,3599,3599,3599,3599,3599,3599,3599,3599,3599,3599,3599,3599,3599,3599,3599,3599,3599,3599,3599,3599,3599,3599,3599,3599,3599,3599,3599,3599,3599,3599,3599,3599,3599,3599,3599,3599,3599,3599,3599,3599,3599,3599,3599,3599,3599,3599,3599,3599,3599,3599,3599,3599,3599,3599,3599,3599,3599,3599,3599,3599,3599,3599,3599,3599,3599,3599,3599,3599,3599,3599,3599,3599,3599,3599,3599,3599,3599,3599,3599,3599,3599,3599,3599,3599,3599,3599,3599,3599,3599,3599,3599,3599,3599,3599,3599,3599,3599,3599,3599,3599,3599,3599,3599,3599,3599,3599,3599,3599,3599,3599,3599,3599,3599,3599,3599,3599,3599,3599,3599,3599,3599,3599,3599,3599,3599,3599,3599,3599,3599,3599,3599,3599,3599,3599,3599,3599,3599,3599,3599,3599,3599,3599,3599,3599,3599,3599,3599,3599,3599,3599,3599,3599,3599,3599,3599,3599,3599,3599,3599,3599,3599,3599,3599,3599,3599,3599,3599,3599,3599,3599,3599,3599,3599,3599,3599,3599,3599,3599,3599,3599,3599,3599,3599,3599,3599,3599,3599,3599,3599,3599,3599,3599,3599,3599,3599,3599,3599,3599,3599,3599,3599,3599,3599,3599,3599,3599,3599,3599,3599,3599,3599,3599,3599,3599,3599,3599,3599,3599,3599,3599,3599,3599,3599,3599,3599,3599,3599,3599,3599,3599,3599,3599,3599,3599,3599,3599,3599,3599,3599,3599,3599,3599,3599,3599,3599,3599,3599,3599,3599,3599,3599,3599,3599,3599,3599,3599,3599,3599,3599,3599,3599,3599,3599,3599,3599,3599,3599,3599,3599,3599,3599,3599,3599,3599,3599,3599,3599,3599,3599,3599,3599,3599,3599,3599,3599,3599,3599,3599,3599,3599,3599,3599,3599,3599,3599,3599,3599,3599,3599,3599,3599,3599,3599,3599,3599,3599,3599,3599,3599,3599,3599,3599,3599,3599,3599,3599,3599,3599,3599,3599,3599,3599,3599,3599,3599,3599,3599,3599,3599,3599,3599,3599,3599,3599,3599,3599,3599,3599,3599,3599,3599,3599,3599,3599,3599,3599,3599,3599,3599,3599,3599,3599,3599,3599,3599,3599,3599,3599,3599,3599,3599,3599,3599,3599,3599,3599,3599,3599,3599,3599,3599,3599,3599,3599,3599,3599,3599,3599,3599,3599,3599,3599,3599,3599,3599,3599,3599,3599,3599,3599,3599,3599,3599,3599,3599,3599,3599,3599,3599,3599,3599,3599,3599,3599,3599,3599,3599,3599,3599,3599,3599,3599,3599,3599,3599,3599,3599,3599,3599,3599,3599,3599,3599,3599,3599,3599,3599,3599,3599,3599,3599,3599,3599,3599,3599,3599,3599,3599,3599,3599,3599,3599,3599,3599,3599,3599,3599,3599,3599,3599,3599,3599,3599,3599,3599,3599,3599,3599,3599,3599,3599,3599,3599,3599,3599,3599,3599,3599,3599,3599,3599,3599,3599,3599,3599,3599,3599,3599,3599,3599,3599,3599,3599,3599,3599,3599,3599,3599,3599,3599,3599,3599,3599,3599,3599,3599,3599,3599,3599,3599,3599,3599,3599,3599,3599,3599,3599,3599,3599,3599,3599,3599,3599,3599,3599,3599,3599,3599,3599,3599,3599,3599,3599,3599,3599,3599,3599,3599,3599,3599,3599,3599,3599,3599,3599,3599,3599,3599,3599,3599,3599,3599,3599,3599,3599,3599,3599,3599,3599,3599,3599,3599,3599,3599,3599,3599,3599,3599,3599,3599,3599,3599,3599,3599,3599,3599,3599,3599,3599,3599,3599,3599,3599,3599,3599,3599,3599,3599,3599,3599,3599,3599,3599,3599,3599,3599,3599,3599,3599,3599,3599,3599,3599,3599,3599,3599,3599,3599,3599,3599,3599,3599,3599,3599,3599,3599,3599,3599,3599,3599,3599,3599,3599,3599,3599,3599,3599,3599,3599,3599,3599,3599,3599,3599,3599,3599,3599,3599,3599,3599,3599,3599,3599,3599,3599,3599,3599,3599,3599,3599,3599,3599,3599,3599,3599,3599,3599,3599,3599,3599,3599,3599,3599,3599,3599,3599,3599,3599,3599,3599,3599,3599,3599,3599,3599,3599,3599,3599,3599,3599,3599,3599,3599,3599,3599,3599,3599,3599,3599,3599,3599,3599,3599,3599,3599,3599,3599,3599,3599,3599,3599,3599,3599,3599,3599,3599,3599,3599,3599,3599,3599,3599,3599,3599,3599,3599,3599,3599,3599,3599,3599,3599,3599,3599,3599,3599,3599,3599,3599,3599,3599,3599,3599,3599,3599,3599,3599,3599,3599,3599,3599,3599,3599,3599,3599,3599,3599,3599,3599,3599,3599,3599,3599,3599,3599,3599,3599,3599,3599,3599,3599,3599,3599,3599,3599,3599,3599,3599,3599,3599,3599,3599,3599,3599,3599,3599,3599,3599,3599,3599,3599,3599,3599,3599,3599,3599,3599,3599,3599,3599,3599,3599,3599,3599,3599,3599,3599,3599,3599,3599,3599,3599,3599,3599,3599,3599,3599,3599,3599,3599,3599,3599,3599,3599,3599,3599,3599,3599,3599,3599,3599,3599,3599,3599,3599,3599,3599,3599,3599,3599,3599,3599,3599,3599,3599,3599,3599,3599,3599,3599,3599,3599,3599,3599,3599,3599,3599,3599,3599,3599,3599,3599,3599,3599,3599,3599,3599,3599,3599,3599,3599,3599,3599,3599,3599,3599,3599,3599,3599,3599,3599,3599,3599,3599,3599,3599,3599,3599,3599,3599,3599,3599,3599,3599,3599,3599,3599,3599,3599,3599,3599,3599,3599,3599,3599,3599,3599,3599,3599,3599,3599,3599,3599,3599,3599,3599,3599,3599,3599,3599,3599,3599,3599,3599,3599,3599,3599,3599,3599,3599,3599,3599,3599,3599,3599,3599,3599,3599,3599,3599,3599,3599,3599,3599,3599,3599,3599,3599,3599,3599,3599,3599,3599,3599,3599,3599,3599,3599,3599,3599,3599,3599,3599,3599,3599,3599,3599,3599,3599,3599,3599,3599,3599,3599,3599,3599,3599,3599,3599,3599,3599,3599,3599,3599,3599,3599,3599,3599,3599,3599,3599,3599,3599,3599,3599,3599,3599,3599,3599,3599,3599,3599,3599,3599,3599,3599,3599,3599,3599,3599,3599,3599,3599,3599,3599,3599,3599,3599,3599,3599,3599,3599,3599,3599,3599,3599,3599,3599,3599,3599,3599,3599,3599,3599,3599,3599,3599,3599,3599,3599,3599,3599,3599,3599,3599,3599,3599,3599,3599,3599,3599,3599,3599,3599,3599,3599,3599,3599,3599,3599,3599,3599,3599,3599,3599,3599,3599,3599,3599,3599,3599,3599,3599,3599,3599,3599,3599,3599,3599,3599,3599,3599,3599,3599,3599,3599,3599,3599,3599,3599,3599,3599,3599,3599,3599,3599,3599,3599,3599,3599,3599,3599,3599,3599,3599,3599,3599,3599,3599,3599,3599,3599,3599,3599,3599,3599,3599,3599,3599,3599,3599,3599,3599,3599,3599,3599,3599,3599,3599,3599,3599,3599,3599,3599,3599,3599,3599,3599,3599,3599,3599,3599,3599,3599,3599,3599,3599,3599,3599,3599,3599,3599,3599,3599,3599,3599,3599,3599,3599,3599,3599,3599,3599,3599,3599,3599,3599,3599,3599,3599,3599,3599,3599,3599,3599,3599,3599,3599,3599,3599,3599,3599,3599,3599,3599,3599,3599,3599,3599,3599,3599,3599,3599,3599,3599,3599,3599,3599,3599,3599,3599,3599,3599,3599,3599,3599,3599,3599,3599,3599,3599,3599,3599,3599,3599,3599,3599,3599,3599,3599,3599,3599,3599,3599,3599,3599,3599,3599,3599,3599,3599,3599,3599,3599,3599,3599,3599,3599,3599,3599,3599,3599,3599,3599,3599,3599,3599,3599,3599,3599,3599,3599,3599,3599,3599,3599,3599,3599,3599,3599,3599,3599,3599,3599,3599,3599,3599,3599,3599,3599,3599,3599,3599,3599,3599,3599,3599,3599,3599,3599,3599,3599,3599,3599,3599,3599,3599,3599,3599,3599,3599,3599,3599,3599,3599,3599,3599,3599,3599,3599,3599,3599,3599,3599,3599,3599,3599,3599,3599,3599,3599,3599,3599,3599,3599,3599,3599,3599,3599,3599,3599,3599,3599,3599,3599,3599,3599,3599,3599,3599,3599,3599,3599,3599,3599,3599,3599,3599,3599,3599,3599,3599,3599,3599,3599,3599,3599,3599,3599,3599,3599,3599,3599,3599,3599,3599,3599,3599,3599,3599,3599,3599,3599,3599,3599,3599,3599,3599,3599,3599,3599,3599,3599,3599,3599,3599,3599,3599,3599,3599,3599,3599,3599,3584,3584,3584,3584,3584,3584,3584,3584,3584,3584,3584,3584,3584,3584,3584,3584,3586,3586,3586,3586,3592,3592,3592,3592,3588,3588,3588,3588,3584,3584,3584,3584,3590,3592,3594,3594,3596,3596,3588,3588,3586,3586,3598,3594,3590,3596,3598,3599,3584,3584,3584,3584,3584,3584,3584,3584,3584,3584,3584,3584,3584,3584,3584,3584,3586,3586,3586,3586,3592,3592,3592,3592,3588,3588,3588,3588,3584,3584,3584,3584,3590,3592,3594,3594,3596,3596,3588,3588,3586,3586,3598,3594,3590,3596,3598,3599,3584,3584,3584,3584,3584,3584,3584,3584,3584,3584,3584,3584,3584,3584,3584,3584,3586,3586,3586,3586,3592,3592,3592,3592,3588,3588,3588,3588,3584,3584,3584,3584,3590,3592,3594,3594,3596,3596,3588,3588,3586,3586,3598,3594,3590,3596,3598,3599,3584,3584,3584,3584,3584,3584,3584,3584,3584,3584,3584,3584,3584,3584,3584,3584,3586,3586,3586,3586,3592,3592,3592,3592,3588,3588,3588,3588,3584,3584,3584,3584,3590,3592,3594,3594,3596,3596,3588,3588,3586,3586,3598,3594,3590,3596,3598,3599,3584,3584,3584,3584,3584,3584,3584,3584,3584,3584,3584,3584,3584,3584,3584,3584,3586,3586,3586,3586,3592,3592,3592,3592,3588,3588,3588,3588,3584,3584,3584,3584,3590,3592,3594,3594,3596,3596,3588,3588,3586,3586,3598,3594,3590,3596,3598,3599,3584,3584,3584,3584,3584,3584,3584,3584,3584,3584,3584,3584,3584,3584,3584,3584,3586,3586,3586,3586,3592,3592,3592,3592,3588,3588,3588,3588,3584,3584,3584,3584,3590,3592,3594,3594,3596,3596,3588,3588,3586,3586,3598,3594,3590,3596,3598,3599,3584,3584,3584,3584,3584,3584,3584,3584,3584,3584,3584,3584,3584,3584,3584,3584,3586,3586,3586,3586,3592,3592,3592,3592,3588,3588,3588,3588,3584,3584,3584,3584,3590,3592,3594,3594,3596,3596,3588,3588,3586,3586,3598,3594,3590,3596,3598,3599,3584,3584,3584,3584,3584,3584,3584,3584,3584,3584,3584,3584,3584,3584,3584,3584,3586,3586,3586,3586,3592,3592,3592,3592,3588,3588,3588,3588,3584,3584,3584,3584,3590,3592,3594,3594,3596,3596,3588,3588,3586,3586,3598,3594,3590,3596,3598,3599,3599,3599,3599,3599,3599,3599,3599,3599,3599,3599,3599,3599,3599,3599,3599,3599,3599,3599,3599,3599,3599,3599,3599,3599,3599,3599,3599,3599,3599,3599,3599,3599,3599,3599,3599,3599,3599,3599,3599,3599,3599,3599,3599,3599,3599,3599,3599,3599,3599,3599,3599,3599,3599,3599,3599,3599,3599,3599,3599,3599,3599,3599,3599,3599,3599,3599,3599,3599,3599,3599,3599,3599,3599,3599,3599,3599,3599,3599,3599,3599,3599,3599,3599,3599,3599,3599,3599,3599,3599,3599,3599,3599,3599,3599,3599,3599,3599,3599,3599,3599,3599,3599,3599,3599,3599,3599,3599,3599,3599,3599,3599,3599,3599,3599,3599,3599,3599,3599,3599,3599,3599,3599,3599,3599,3599,3599,3599,3599,3599,3599,3599,3599,3599,3599,3599,3599,3599,3599,3599,3599,3599,3599,3599,3599,3599,3599,3599,3599,3599,3599,3599,3599,3599,3599,3599,3599,3599,3599,3599,3599,3599,3599,3599,3599,3599,3599,3599,3599,3599,3599,3599,3599,3599,3599,3599,3599,3599,3599,3599,3599,3599,3599,3599,3599,3599,3599,3599,3599,3599,3599,3599,3599,3599,3599,3599,3599,3599,3599,3599,3599,3599,3599,3599,3599,3599,3599,3599,3599,3599,3599,3599,3599,3599,3599,3599,3599,3599,3599,3599,3599,3599,3599,3599,3599,3599,3599,3599,3599,3599,3599,3599,3599,3599,3599,3599,3599,3599,3599,3599,3599,3599,3599,3599,3599,3599,3599,3599,3599,3599,3599,3599,3599,3599,3599,3599,3599,3599,3599,3599,3599,3599,3599,3599,3599,3599,3599,3599,3599,3599,3599,3599,3599,3599,3599,3599,3599,3599,3599,3599,3599,3599,3599,3599,3599,3599,3599,3599,3599,3599,3599,3599,3599,3599,3599,3599,3599,3599,3599,3599,3599,3599,3599,3599,3599,3599,3599,3599,3599,3599,3599,3599,3599,3599,3599,3599,3599,3599,3599,3599,3599,3599,3599,3599,3599,3599,3599,3599,3599,3599,3599,3599,3599,3599,3599,3599,3599,3599,3599,3599,3599,3599,3599,3599,3599,3599,3599,3599,3599,3599,3599,3599,3599,3599,3599,3599,3599,3599,3599,3599,3599,3599,3599,3599,3599,3599,3599,3599,3599,3599,3599,3599,3599,3599,3599,3599,3599,3599,3599,3599,3599,3599,3599,3599,3599,3584,3584,3584,3584,3584,3584,3584,3584,3584,3584,3584,3584,3584,3584,3584,3584,3586,3586,3586,3586,3592,3592,3592,3592,3588,3588,3588,3588,3584,3584,3584,3584,3590,3592,3594,3594,3596,3596,3588,3588,3586,3586,3598,3594,3590,3596,3598,3599,3584,3584,3584,3584,3584,3584,3584,3584,3584,3584,3584,3584,3584,3584,3584,3584,3586,3586,3586,3586,3592,3592,3592,3592,3588,3588,3588,3588,3584,3584,3584,3584,3590,3592,3594,3594,3596,3596,3588,3588,3586,3586,3598,3594,3590,3596,3598,3599,3584,3584,3584,3584,3584,3584,3584,3584,3584,3584,3584,3584,3584,3584,3584,3584,3586,3586,3586,3586,3592,3592,3592,3592,3588,3588,3588,3588,3584,3584,3584,3584,3590,3592,3594,3594,3596,3596,3588,3588,3586,3586,3598,3594,3590,3596,3598,3599,3584,3584,3584,3584,3584,3584,3584,3584,3584,3584,3584,3584,3584,3584,3584,3584,3586,3586,3586,3586,3592,3592,3592,3592,3588,3588,3588,3588,3584,3584,3584,3584,3590,3592,3594,3594,3596,3596,3588,3588,3586,3586,3598,3594,3590,3596,3598,3599,3584,3584,3584,3584,3584,3584,3584,3584,3584,3584,3584,3584,3584,3584,3584,3584,3586,3586,3586,3586,3592,3592,3592,3592,3588,3588,3588,3588,3584,3584,3584,3584,3590,3592,3594,3594,3596,3596,3588,3588,3586,3586,3598,3594,3590,3596,3598,3599,3584,3584,3584,3584,3584,3584,3584,3584,3584,3584,3584,3584,3584,3584,3584,3584,3586,3586,3586,3586,3592,3592,3592,3592,3588,3588,3588,3588,3584,3584,3584,3584,3590,3592,3594,3594,3596,3596,3588,3588,3586,3586,3598,3594,3590,3596,3598,3599,3584,3584,3584,3584,3584,3584,3584,3584,3584,3584,3584,3584,3584,3584,3584,3584,3586,3586,3586,3586,3592,3592,3592,3592,3588,3588,3588,3588,3584,3584,3584,3584,3590,3592,3594,3594,3596,3596,3588,3588,3586,3586,3598,3594,3590,3596,3598,3599,3584,3584,3584,3584,3584,3584,3584,3584,3584,3584,3584,3584,3584,3584,3584,3584,3586,3586,3586,3586,3592,3592,3592,3592,3588,3588,3588,3588,3584,3584,3584,3584,3590,3592,3594,3594,3596,3596,3588,3588,3586,3586,3598,3594,3590,3596,3598,3599,3599,3599,3599,3599,3599,3599,3599,3599,3599,3599,3599,3599,3599,3599,3599,3599,3599,3599,3599,3599,3599,3599,3599,3599,3599,3599,3599,3599,3599,3599,3599,3599,3599,3599,3599,3599,3599,3599,3599,3599,3599,3599,3599,3599,3599,3599,3599,3599,3599,3599,3599,3599,3599,3599,3599,3599,3599,3599,3599,3599,3599,3599,3599,3599,3599,3599,3599,3599,3599,3599,3599,3599,3599,3599,3599,3599,3599,3599,3599,3599,3599,3599,3599,3599,3599,3599,3599,3599,3599,3599,3599,3599,3599,3599,3599,3599,3599,3599,3599,3599,3599,3599,3599,3599,3599,3599,3599,3599,3599,3599,3599,3599,3599,3599,3599,3599,3599,3599,3599,3599,3599,3599,3599,3599,3599,3599,3599,3599,3599,3599,3599,3599,3599,3599,3599,3599,3599,3599,3599,3599,3599,3599,3599,3599,3599,3599,3599,3599,3599,3599,3599,3599,3599,3599,3599,3599,3599,3599,3599,3599,3599,3599,3599,3599,3599,3599,3599,3599,3599,3599,3599,3599,3599,3599,3599,3599,3599,3599,3599,3599,3599,3599,3599,3599,3599,3599,3599,3599,3599,3599,3599,3599,3599,3599,3599,3599,3599,3599,3599,3599,3599,3599,3599,3599,3599,3599,3599,3599,3599,3599,3599,3599,3599,3599,3599,3599,3599,3599,3599,3599,3599,3599,3599,3599,3599,3599,3599,3599,3599,3599,3599,3599,3599,3599,3599,3599,3599,3599,3599,3599,3599,3599,3599,3599,3599,3599,3599,3599,3599,3599,3599,3599,3599,3599,3599,3599,3599,3599,3599,3599,3599,3599,3599,3599,3599,3599,3599,3599,3599,3599,3599,3599,3599,3599,3599,3599,3599,3599,3599,3599,3599,3599,3599,3599,3599,3599,3599,3599,3599,3599,3599,3599,3599,3599,3599,3599,3599,3599,3599,3599,3599,3599,3599,3599,3599,3599,3599,3599,3599,3599,3599,3599,3599,3599,3599,3599,3599,3599,3599,3599,3599,3599,3599,3599,3599,3599,3599,3599,3599,3599,3599,3599,3599,3599,3599,3599,3599,3599,3599,3599,3599,3599,3599,3599,3599,3599,3599,3599,3599,3599,3599,3599,3599,3599,3599,3599,3599,3599,3599,3599,3599,3599,3599,3599,3599,3599,3599,3599,3599,3599,3599,3599,3599,3599,3599,3599,3599,3599,3599,3599,3599,3599,3599,3599,3584,3584,3584,3584,3584,3584,3584,3584,3584,3584,3584,3584,3584,3584,3584,3584,3586,3586,3586,3586,3592,3592,3592,3592,3588,3588,3588,3588,3584,3584,3584,3584,3590,3592,3594,3594,3596,3596,3588,3588,3586,3586,3598,3594,3590,3596,3598,3599,3584,3584,3584,3584,3584,3584,3584,3584,3584,3584,3584,3584,3584,3584,3584,3584,3586,3586,3586,3586,3592,3592,3592,3592,3588,3588,3588,3588,3584,3584,3584,3584,3590,3592,3594,3594,3596,3596,3588,3588,3586,3586,3598,3594,3590,3596,3598,3599,3584,3584,3584,3584,3584,3584,3584,3584,3584,3584,3584,3584,3584,3584,3584,3584,3586,3586,3586,3586,3592,3592,3592,3592,3588,3588,3588,3588,3584,3584,3584,3584,3590,3592,3594,3594,3596,3596,3588,3588,3586,3586,3598,3594,3590,3596,3598,3599,3584,3584,3584,3584,3584,3584,3584,3584,3584,3584,3584,3584,3584,3584,3584,3584,3586,3586,3586,3586,3592,3592,3592,3592,3588,3588,3588,3588,3584,3584,3584,3584,3590,3592,3594,3594,3596,3596,3588,3588,3586,3586,3598,3594,3590,3596,3598,3599,3584,3584,3584,3584,3584,3584,3584,3584,3584,3584,3584,3584,3584,3584,3584,3584,3586,3586,3586,3586,3592,3592,3592,3592,3588,3588,3588,3588,3584,3584,3584,3584,3590,3592,3594,3594,3596,3596,3588,3588,3586,3586,3598,3594,3590,3596,3598,3599,3584,3584,3584,3584,3584,3584,3584,3584,3584,3584,3584,3584,3584,3584,3584,3584,3586,3586,3586,3586,3592,3592,3592,3592,3588,3588,3588,3588,3584,3584,3584,3584,3590,3592,3594,3594,3596,3596,3588,3588,3586,3586,3598,3594,3590,3596,3598,3599,3584,3584,3584,3584,3584,3584,3584,3584,3584,3584,3584,3584,3584,3584,3584,3584,3586,3586,3586,3586,3592,3592,3592,3592,3588,3588,3588,3588,3584,3584,3584,3584,3590,3592,3594,3594,3596,3596,3588,3588,3586,3586,3598,3594,3590,3596,3598,3599,3584,3584,3584,3584,3584,3584,3584,3584,3584,3584,3584,3584,3584,3584,3584,3584,3586,3586,3586,3586,3592,3592,3592,3592,3588,3588,3588,3588,3584,3584,3584,3584,3590,3592,3594,3594,3596,3596,3588,3588,3586,3586,3598,3594,3590,3596,3598,3599,3599,3599,3599,3599,3599,3599,3599,3599,3599,3599,3599,3599,3599,3599,3599,3599,3599,3599,3599,3599,3599,3599,3599,3599,3599,3599,3599,3599,3599,3599,3599,3599,3599,3599,3599,3599,3599,3599,3599,3599,3599,3599,3599,3599,3599,3599,3599,3599,3599,3599,3599,3599,3599,3599,3599,3599,3599,3599,3599,3599,3599,3599,3599,3599,3599,3599,3599,3599,3599,3599,3599,3599,3599,3599,3599,3599,3599,3599,3599,3599,3599,3599,3599,3599,3599,3599,3599,3599,3599,3599,3599,3599,3599,3599,3599,3599,3599,3599,3599,3599,3599,3599,3599,3599,3599,3599,3599,3599,3599,3599,3599,3599,3599,3599,3599,3599,3599,3599,3599,3599,3599,3599,3599,3599,3599,3599,3599,3599,3599,3599,3599,3599,3599,3599,3599,3599,3599,3599,3599,3599,3599,3599,3599,3599,3599,3599,3599,3599,3599,3599,3599,3599,3599,3599,3599,3599,3599,3599,3599,3599,3599,3599,3599,3599,3599,3599,3599,3599,3599,3599,3599,3599,3599,3599,3599,3599,3599,3599,3599,3599,3599,3599,3599,3599,3599,3599,3599,3599,3599,3599,3599,3599,3599,3599,3599,3599,3599,3599,3599,3599,3599,3599,3599,3599,3599,3599,3599,3599,3599,3599,3599,3599,3599,3599,3599,3599,3599,3599,3599,3599,3599,3599,3599,3599,3599,3599,3599,3599,3599,3599,3599,3599,3599,3599,3599,3599,3599,3599,3599,3599,3599,3599,3599,3599,3599,3599,3599,3599,3599,3599,3599,3599,3599,3599,3599,3599,3599,3599,3599,3599,3599,3599,3599,3599,3599,3599,3599,3599,3599,3599,3599,3599,3599,3599,3599,3599,3599,3599,3599,3599,3599,3599,3599,3599,3599,3599,3599,3599,3599,3599,3599,3599,3599,3599,3599,3599,3599,3599,3599,3599,3599,3599,3599,3599,3599,3599,3599,3599,3599,3599,3599,3599,3599,3599,3599,3599,3599,3599,3599,3599,3599,3599,3599,3599,3599,3599,3599,3599,3599,3599,3599,3599,3599,3599,3599,3599,3599,3599,3599,3599,3599,3599,3599,3599,3599,3599,3599,3599,3599,3599,3599,3599,3599,3599,3599,3599,3599,3599,3599,3599,3599,3599,3599,3599,3599,3599,3599,3599,3599,3599,3599,3599,3599,3599,3599,3599,3599,3599,3599,3599,3599,3599,3599,3599],"mode":0,"name":"Default (None)","note":"","tilesetNames":["","","","","","","","",""]},
{"id":2,"flags":[16,1536,1536,1536,1536,1536,1536,1536,1536,1536,1536,1536,1536,1536,1536,1536,1536,1536,1536,1536,1536,1536,1536,1536,1536,1536,1536,1536,1536,1536,1536,1536,1536,1536,1536,1536,1536,1536,1536,1536,1536,1536,1536,1536,1536,1536,1536,1536,1536,1536,1536,1536,1536,1536,1536,1536,1536,1536,1536,1536,1536,1536,1536,1536,1536,1536,1536,1536,1536,1536,1536,1536,1536,1536,1536,1536,1536,1536,1536,1536,1536,1536,1536,1536,1536,1536,1536,1536,1536,1536,1536,1536,1536,1536,1536,1536,1536,1536,1536,1536,1536,1536,1536,1536,1536,1536,1536,1536,1536,1536,1536,1536,1536,1536,1536,1536,1536,1536,1536,1536,1536,1536,1536,1536,1536,1536,1536,1536,1536,1536,1536,1536,1536,1536,1536,1536,1536,1536,1536,1536,1536,1536,1536,1536,1536,1536,1536,1536,1536,1536,1536,1536,1536,1536,1536,1536,1536,1536,1536,1536,1536,1536,1536,1536,1536,1536,1536,1536,1536,1536,1536,1536,1536,1536,1536,1536,1536,1536,1536,1536,1536,1536,1536,1536,1536,1536,1536,1536,1536,1536,1536,1536,1536,1536,1536,1536,1536,1536,1536,1536,1536,1536,1536,1536,1536,1536,1536,1536,1536,1536,1536,1536,1536,1536,1536,1536,1536,1536,1536,1536,1536,1536,1536,1536,1536,1536,1536,1536,1536,1536,1536,1536,1536,1536,1536,1536,1536,1536,1536,1536,1536,1536,1536,1536,1536,1536,1536,1536,1536,1536,1536,1536,1536,1536,1536,1536,1536,1536,1536,1536,1536,1536,1536,1536,1536,1536,1536,1536,1536,1536,1536,1536,1536,1536,1536,1536,1536,1536,1536,1536,1536,1536,1536,1536,1536,1536,1536,1536,1536,1536,1536,1536,1536,1536,1536,1536,1536,1536,1536,1536,1536,1536,1536,1536,1536,1536,1536,1536,1536,1536,1536,1536,1536,1536,1536,1536,1536,1536,1536,1536,1536,1536,1536,1536,1536,1536,1536,1536,1536,1536,1536,1536,1536,1536,1536,1536,1536,1536,1536,1536,1536,1536,1536,1536,1536,1536,1536,1536,1536,1536,1536,1536,1536,1536,1536,1536,1536,1536,1536,1536,1536,1536,1536,1536,1536,1536,1536,1536,1536,1536,1536,1536,1536,1536,1536,1536,1536,1536,1536,1536,1536,1536,1536,1536,1536,1536,1536,1536,1536,1536,1536,1536,1536,1536,1536,1536,1536,1536,1536,1536,1536,1536,1551],"mode":1,"name":"Test","note":"","tilesetNames":["crystalcave_bigger_A1","crystalcave_bigger_A2","MercuryL","","","crystalcave_bigger_A1","crystalcave_bigger_A2","",""]},
{"id":3,"flags":[16],"mode":1,"name":"Our Ship","note":"","tilesetNames":["","","","","","newufo_bigger_B","newufo_bigger_C","newufo_bigger_D","newufo_bigger_E"]},
{"id":4,"flags":[16],"mode":1,"name":"Spaaaaaace","note":"","tilesetNames":["","","","","","spaceisbig","","",""]},
{"id":5,"flags":[16],"mode":1,"name":"Giegue's Ship","note":"","tilesetNames":["","","","","","","","",""]},
{"id":6,"flags":[16],"mode":1,"name":"Satron General","note":"","tilesetNames":["","","","","","","","",""]},
{"id":7,"flags":[16,1536,1536,1536,1536,1536,1536,1536,1536,1536,1536,1536,1536,1536,1536,1536,1536,1536,1536,1536,1536,1536,1536,1546,1536,1536,1536,1536,1536,1536,1536,1538,1536,1536,1536,1536,1551,1551,1551,1539,1536,1536,1536,1536,1536,1536,1536,1551,1536,1536,1536,1536,1536,1536,1536,1536,1536,1536,1536,1536,1536,1536,1536,1536,1536,1536,1536,1536,1536,1536,1551,1552,1536,1536,1536,1536,1536,1536,1551,1551,1536,1536,1536,1536,1552,1552,1536,1551,1536,1536,1536,1536,1551,1551,1536,1536,1536,1536,1536,1536,1552,1552,1552,1552,1536,1536,1536,1536,1552,1552,1552,1552,1536,1536,1536,1536,1551,1551,1551,1551,1536,1536,1536,1536,1536,1551,1551,1551,1536,1536,1536,1536,1536,1536,1536,1536,1536,1536,1536,1536,1536,1536,1536,1536,1544,1548,1536,1536,1536,1536,1536,1536,1536,1540,1536,1536,1536,1536,1536,1536,1536,1541,1536,1536,1536,1536,1536,1536,1536,1536,1536,1536,1536,1536,1536,1536,1536,1536,1536,1536,1536,1552,1536,1536,1536,1536,1536,1536,1552,1552,1552,1536,1552,1552,1536,1536,1552,1552,1552,1536,1551,1551,1536,1552,1552,1552,1552,1552,1551,1551,1536,1552,1552,1552,1552,1552,1536,1536,1536,1552,1552,1552,1552,1552,1552,1536,1536,1551,1551,1551,1551,1551,1552,1552,1536,1551,1551,1551,1551,1536,1551,1551,1536,1551,1551,1551,1536,1536,1551,1551,1536,1536,1536,1551,1536,1536,1536,1536,1536,1536,1536,1536,1536,1536,1536,1536,1536,1536,1536,1536,1536,1536,1536,1536,1536,1536,1536,1536,1536,1536,1536,1536,1536,1536,1536,1536,1536,1536,1536,1536,1536,1536,1536,1536,1536,1536,1536,1536,1536,1536,1536,1536,1536,1536,1536,1536,1536,1536,1536,1536,1536,1536,1536,1536,1536,1536,1536,1536,1536,1536,1536,1536,1536,1536,1536,1536,1551,1552,1536,1536,1536,1536,1536,1536,1551,1551,1536,1536,1536,1536,1552,1552,1536,1551,1536,1536,1536,1536,1551,1551,1536,1536,1536,1536,1536,1536,1552,1552,1552,1552,1536,1536,1536,1536,1552,1552,1552,1552,1536,1536,1536,1536,1551,1551,1551,1551,1536,1536,1536,1536,1536,1551,1551,1551,1536,1536,1536,1536,1536,1536,1536,1536,1536,1536,1536,1536,1536,1536,1536,1536,1536,1536,1536,1536,1536,1536,1536,1536,1536,1536,1536,1536,1536,1536,1536,1536,1536,1536,1536,1536,1536,1536,1536,1536,1536,1536,1536,1536,1536,1536,1536,1536,1536,1536,1536,1536,1536,1552,1536,1536,1536,1536,1536,1536,1552,1552,1536,1536,1552,1552,1536,1536,1552,1552,1552,1536,1551,1551,1536,1552,1552,1552,1552,1552,1551,1551,1536,1552,1552,1552,1552,1552,1536,1536,1536,1552,1552,1552,1552,1552,1552,1536,1536,1551,1551,1551,1551,1551,1552,1552,1536,1551,1551,1551,1551,1536,1551,1551,1536,1551,1551,1551,1536,1536,1551,1551,1536,1536,1536,1551],"mode":1,"name":"Dream","note":"","tilesetNames":["","dream1_A2","","","","dream1_B","dream1_C","",""]},
{"id":8,"flags":[16],"mode":1,"name":"Satron Caves","note":"","tilesetNames":["","","","","","","","",""]},
{"id":9,"flags":[16],"mode":1,"name":"Satralia","note":"","tilesetNames":["","","","","","","","",""]},
{"id":10,"flags":[16],"mode":1,"name":"Mr. Saturn","note":"","tilesetNames":["","","","","","","","",""]},
{"id":11,"flags":[16],"mode":1,"name":"Sataene","note":"","tilesetNames":["","","","","","","","",""]},
{"id":12,"flags":[16],"mode":1,"name":"Old Sataene ( Swomp )","note":"","tilesetNames":["","","","","","","","",""]},
{"id":13,"flags":[16],"mode":1,"name":"Deep Spring","note":"","tilesetNames":["","","","","","","","",""]},
{"id":14,"flags":[16],"mode":1,"name":"Elmadan Mansion (D)","note":"","tilesetNames":["","","","","","","","",""]},
{"id":15,"flags":[16],"mode":1,"name":"Alinivar Mansion (L)","note":"","tilesetNames":["","","","","","","","",""]},
{"id":16,"flags":[16],"mode":1,"name":"Renovated Mansion","note":"","tilesetNames":["","","","","","","","",""]},
{"id":17,"flags":[16],"mode":1,"name":"Mansion Roof","note":"","tilesetNames":["","","","","","","","",""]},
{"id":18,"flags":[16],"mode":1,"name":"Mr. Saturn Roof","note":"","tilesetNames":["","","","","","","","",""]},
{"id":19,"flags":[16],"mode":1,"name":"Jupiter General","note":"","tilesetNames":["","","","","","","","",""]},
{"id":20,"flags":[16],"mode":1,"name":"Bolos","note":"","tilesetNames":["","","","","","","","",""]},
{"id":21,"flags":[16],"mode":1,"name":"Bolos Interior","note":"","tilesetNames":["","","","","","","","",""]},
{"id":22,"flags":[16],"mode":1,"name":"Anolin","note":"","tilesetNames":["","","","","","","","",""]},
{"id":23,"flags":[16],"mode":1,"name":"Western Shoppe","note":"","tilesetNames":["","","","","","","","",""]},
{"id":24,"flags":[16],"mode":1,"name":"Twoson","note":"","tilesetNames":["","","","","","","","",""]},
{"id":25,"flags":[16],"mode":1,"name":"Ships","note":"","tilesetNames":["","","","","","","","",""]},
{"id":26,"flags":[16,1536,1536,1536,1536,1536,1536,1536,1536,1536,1536,1536,1536,1536,1536,1536,1536,1536,1536,1536,1536,1536,1536,1536,1536,1536,1536,1536,1536,1536,1536,1536,1536,1536,1536,1536,1536,1536,1536,1536,1536,1536,1536,1536,1536,1536,1536,1536,1536,1536,1536,1536,1536,1536,1536,1536,1536,1536,1536,1536,1536,1536,1536,1536,1536,1536,1536,1536,1536,1536,1536,1536,1536,1536,1536,1536,1536,1536,1536,1536,1536,1536,1536,1536,1536,1536,1536,1536,1536,1536,1536,1536,1536,1536,1536,1536,1536,1536,1536,1536,1536,1536,1536,1536,1536,1536,1536,1536,1536,1536,1536,1536,1536,1536,1536,1536,1536,1536,1536,1536,1536,1536,1536,1536,1536,1536,1536,1536,1536,1536,1536,1536,1536,1536,1536,1536,1536,1536,1536,1536,1536,1536,1536,1536,1536,1536,1536,1536,1536,1536,1536,1536,1536,1536,1536,1536,1536,1536,1536,1536,1536,1536,1536,1536,1536,1536,1536,1536,1536,1536,1536,1536,1536,1536,1536,1536,1536,1536,1536,1536,1536,1536,1536,1536,1536,1536,1536,1536,1536,1536,1536,1536,1536,1536,1536,1536,1536,1536,1536,1536,1536,1536,1536,1536,1536,1536,1536,1536,1536,1536,1536,1536,1536,1536,1536,1536,1536,1536,1536,1536,1536,1536,1536,1536,1536,1536,1536,1536,1536,1536,1536,1536,1536,1536,1536,1536,1536,1536,1536,1536,1536,1536,1536,1536,1536,1536,1536,1536,1536,1536,1536,1536,1536,1536,1536,1536,1536,1536,1536,1536,1536,1536,1536,1536,1536,1536,1536,1536,1536,1536,1536,1536,1536,1536,1536,1536,1536,1536,1536,1536,1536,1536,1536,1536,1536,1536,1536,1536,1536,1536,1536,1536,1536,1536,1536,1536,1536,1536,1536,1536,1536,1536,1536,1536,1536,1536,1536,1536,1536,1536,1536,1536,1536,1536,1536,1536,1536,1536,1536,1536,1536,1536,1536,1536,1536,1536,1536,1536,1536,1536,1536,1536,1536,1536,1536,1536,1536,1536,1536,1536,1536,1536,1536,1536,1536,1536,1536,1536,1536,1536,1536,1536,1536,1536,1536,1536,1536,1536,1536,1536,1536,1536,1536,1536,1536,1536,1536,1536,1536,1536,1536,1536,1536,1536,1536,1536,1536,1536,1536,1536,1536,1536,1536,1536,1536,1536,1536,1536,1536,1536,1536,1536,1536,1536,1536,1536,1536,1536,1536,1536,1536,1536,1536,1536,1536,1536,1536,1536,1536,1536,1536,1536,1536,1536,1536,1536,1536,1536,1536,1536,1536,1536,1536,1536,1536,1536,1536,1536,1536,1536,1536,1536,1536,1536,1536,1536,1536,1536,1536,1536,1536,1536,1536,1536,1536,1536,1536,1536,1536,1536,1536,1536,1536,1536,1536,1536,1536,1536,1536,1536,1536,1536,1536,1536,1536,1536,1536,1536,1536,1536,1536,1536,1536,1536,1536,1536,1536,1536,1536,1536,1536,1536,1536,1536,1536,1536,1536,1536,1536,1536,1536,1536,1536,1536,1536,1536,1536,1536,1536,1536,1536,1536,1536,1536,1536,1536,1536,1536,1536,1536,1536,1536,1536,1536,1536,1536,1536,1551,1551,1551,1536,1536,1551,1552,1551,1551,1551,1551,1536,1536,1551,1552,1551,1551,1551,1551,1551,1551,1536,1551,1536,1536,1551,1551,1551,1551,1536,1536,1536,1536,1536,1536,1551,1551,1551,1551,1551,1536,1536,1536,1551,1551,1551,1551,1551,1551,1536,1536,1536,1536,1551,1536,1536,1536,1536,1536,1551,1536,1536,1536,1536,1536,1536,1536,1551,1551,1551,1536,1536,1536,1536,1536,1551,1551,1551,1536,1536,1536,1552,1536,1551,1551,1551,1551,1551,1551,1552,1536,1551,1551,1551,1551,1551,1551,1551,1536,1551,1551,1551,1551,1551,1551,1536,1536,1536,1551,1536,1551,1551,1551,1536,1536,1536,1536,1536,1551,1551,1551,1536,1536,1536,1536,1536,1551,1552,1536,1536,1536,1536,1536,1536,1536,1551,1552,1552,1552,1536,1536,1536,1552,1551,1551,1552,1551,1536,1536,1536,1551,1551,1536,1536,1536,1552,1552,1552,1552,1552,1552,1552,1552,1551,1551,1552,1552,1552,1552,1552,1552,1552,1552,1551,1551,1551,1551,1551,1551,1551,1551,1536,1551,1551,1551,1551,1551,1552,1551,1551,1536,1536,1536,1536,1536,1551,1551,1552,1536,1536,1536,1536,1552,1536,1551,1536,1551,1552,1551,1536,1551,1536,1551,1536,1551,1551,1536,1536,1536,1536,1536,1536,1536,1551,1552,1536,1536,1536,1536,1536,1536,1536,1551,1536,1536,1536,1551,1552,1552,1551,1536,1536,1551,1536,1536,1551,1551,1536,1536,1536,1551],"mode":1,"name":"Maelstrom","note":"","tilesetNames":["","","","","","gima_B","gima_C","gima_D",""]},
{"id":27,"flags":[16],"mode":1,"name":"Mars","note":"","tilesetNames":["","","","","","","","",""]},
{"id":28,"flags":[16],"mode":1,"name":"Mars Interior","note":"","tilesetNames":["","","","","","","","",""]},
{"id":29,"flags":[16],"mode":1,"name":"Mars Snow","note":"","tilesetNames":["","","","","","","","",""]},
{"id":30,"flags":[16],"mode":1,"name":"Earth Apartments","note":"","tilesetNames":["","","","","","","","",""]},
{"id":31,"flags":[16],"mode":1,"name":"Thunderton","note":"","tilesetNames":["","","","","","","","",""]},
{"id":32,"flags":[16],"mode":1,"name":"Earth Houses/Tents","note":"","tilesetNames":["","","","","","","","",""]},
{"id":33,"flags":[16],"mode":1,"name":"Earth Shops","note":"","tilesetNames":["","","","","","","","",""]},
{"id":34,"flags":[16],"mode":1,"name":"Hospital","note":"","tilesetNames":["","","","","","","","",""]},
{"id":35,"flags":[16],"mode":1,"name":"Junkyard","note":"","tilesetNames":["","","","","","","","",""]},
{"id":36,"flags":[16],"mode":1,"name":"Bridge","note":"","tilesetNames":["","","","","","","","",""]},
{"id":37,"flags":[16],"mode":1,"name":"Cloudvale","note":"","tilesetNames":["","","","","","","","",""]},
{"id":38,"flags":[16],"mode":1,"name":"Destroyed Onett","note":"","tilesetNames":["","","","","","","","",""]},
{"id":39,"flags":[16],"mode":1,"name":"Earth Interiors","note":"","tilesetNames":["","","","","","","","",""]},
{"id":40,"flags":[16],"mode":1,"name":"Maelstrom Central","note":"","tilesetNames":["","","","","","","","",""]},
{"id":41,"flags":[16],"mode":1,"name":"Swomp","note":"","tilesetNames":["","","","","","","","",""]},
{"id":42,"flags":[16],"mode":1,"name":"Eris","note":"","tilesetNames":["","eris_A2","","","","eris_B","","",""]},
{"id":43,"flags":[16],"mode":1,"name":"Factory 1","note":"","tilesetNames":["","","","","","","","",""]},
{"id":44,"flags":[16],"mode":1,"name":"Factory 2","note":"","tilesetNames":["","","","","","","","",""]},
{"id":45,"flags":[16],"mode":1,"name":"Factory 3","note":"","tilesetNames":["","","","","","","","",""]},
{"id":46,"flags":[16],"mode":1,"name":"Magicant Satralia","note":"","tilesetNames":["","","","","","","","",""]},
{"id":47,"flags":[16],"mode":1,"name":"Magicant Interior","note":"","tilesetNames":["","","","","","","","",""]},
{"id":48,"flags":[16],"mode":1,"name":"Magicant Mother","note":"","tilesetNames":["","","","","","","","",""]},
{"id":49,"flags":[16],"mode":1,"name":"Sound Stone","note":"","tilesetNames":["","","","","","","","",""]},
{"id":50,"flags":[16],"mode":1,"name":"Infested Mothership","note":"","tilesetNames":["","","","","","","","",""]},
{"id":51,"flags":[16],"mode":1,"name":"Crystal (Bright)","note":"","tilesetNames":["","","","","","","","",""]},
{"id":52,"flags":[16],"mode":1,"name":"Crystal (Dull)","note":"","tilesetNames":["","","","","","","","",""]},
{"id":53,"flags":[16],"mode":1,"name":"Neptune","note":"","tilesetNames":["","","","","","","","",""]},
{"id":54,"flags":[16],"mode":1,"name":"Neptune Interior","note":"","tilesetNames":["","","","","","","","",""]},
{"id":55,"flags":[16],"mode":1,"name":"Neptune w/Base","note":"","tilesetNames":["","","","","","","","",""]},
{"id":56,"flags":[16],"mode":1,"name":"Cloud Ocean","note":"","tilesetNames":["","","","","","","","",""]},
{"id":57,"flags":[16],"mode":1,"name":"Pluto","note":"","tilesetNames":["","Pluto_A2","","Pluto_A4","","Pluto_B","Pluto_C","",""]},
{"id":58,"flags":[16],"mode":1,"name":"Venus","note":"","tilesetNames":["","","","","","","","",""]},
{"id":59,"flags":[16],"mode":1,"name":"Mercury Surface","note":"","tilesetNames":["","","","","","","","",""]},
{"id":60,"flags":[16],"mode":1,"name":"Mercury Labs","note":"","tilesetNames":["","","","","","","","",""]},
{"id":61,"flags":[16],"mode":1,"name":"Hidden Room","note":"","tilesetNames":["playroom_A1","playroom_A2","","","","playroom_B","","",""]},
{"id":62,"flags":[16],"mode":1,"name":"Engine Room","note":"","tilesetNames":["","","","","","","","",""]},
{"id":63,"flags":[16],"mode":1,"name":"Capsules Infested","note":"","tilesetNames":["","","","","","","","",""]},
{"id":64,"flags":[16],"mode":1,"name":"Hidden Room 2","note":"","tilesetNames":["","","","","","","","",""]},
{"id":65,"flags":[16],"mode":1,"name":"Infested Motership 2?","note":"","tilesetNames":["","","","","","","","",""]},
{"id":66,"flags":[16],"mode":1,"name":"Capsules Infested 2","note":"","tilesetNames":["","","","","","","","",""]},
{"id":67,"flags":[16],"mode":1,"name":"Engine Room 2","note":"","tilesetNames":["","","","","","","","",""]},
{"id":68,"flags":[16],"mode":1,"name":"Sataene, Tents","note":"","tilesetNames":["","","","","","","","",""]},
{"id":69,"flags":[16],"mode":1,"name":"Escape Scene","note":"","tilesetNames":["","","","","","","","",""]},
{"id":70,"flags":[16],"mode":1,"name":"Zarbol's Ship","note":"","tilesetNames":["","","","","","","","",""]},
{"id":71,"flags":[16],"mode":1,"name":"Factory Blue","note":"","tilesetNames":["","","","","","","","",""]},
{"id":72,"flags":[16],"mode":1,"name":"SATURNTEST","note":"","tilesetNames":["","TILETEST01","","","","","","",""]},
{"id":73,"flags":[16],"mode":1,"name":"","note":"","tilesetNames":["","","","","","","","",""]},
{"id":74,"flags":[16],"mode":1,"name":"Secret?","note":"","tilesetNames":["","","","","","","","",""]},
{"id":75,"flags":[16],"mode":1,"name":"Secret?","note":"","tilesetNames":["","","","","","","","",""]}
]