{
"autoplayBgm":false,"autoplayBgs":false,"battleback1Name":"","battleback2Name":"","bgm":{"name":"","pan":0,"pitch":100,"volume":90},"bgs":{"name":"","pan":0,"pitch":100,"volume":90},"disableDashing":false,"displayName":"Event Indicators","encounterList":[],"encounterStep":30,"height":13,"note":"<Disable Tint Screen>","parallaxLoopX":false,"parallaxLoopY":false,"parallaxName":"","parallaxShow":true,"parallaxSx":0,"parallaxSy":0,"scrollType":0,"specifyBattleback":false,"tilesetId":3,"width":17,
"data":[6180,6204,6204,6204,6204,6204,6204,6204,6204,6204,6204,6204,6204,6204,6204,6204,6184,6200,6570,6570,6570,6570,6570,6570,6570,6570,6570,6570,6570,6570,6570,6570,6570,6192,6200,3234,3220,3220,3220,3220,3220,3220,3220,3220,3220,3220,3220,3220,3220,3236,6192,6200,3216,3200,3200,3200,3200,3200,3200,3200,3200,3200,3200,3200,3200,3200,3224,6192,6200,3216,3200,3200,3200,3200,3200,3200,3200,3200,3200,3200,3200,3200,3200,3224,6192,6200,3216,3200,3200,3200,3200,3200,3200,3200,3200,3200,3200,3200,3200,3200,3224,6192,6200,3216,3200,3200,3200,3200,3200,3200,3200,3200,3200,3200,3200,3200,3200,3224,6192,6200,3216,3200,3200,3200,3200,3200,3200,3200,3200,3200,3200,3200,3200,3200,3224,6192,6200,3216,3200,3200,3200,3200,3200,3200,3200,3200,3200,3200,3200,3200,3200,3224,6192,6200,3216,3200,3200,3200,3200,3200,3200,3200,3200,3200,3200,3200,3200,3200,3224,6192,6200,3216,3200,3200,3200,3200,3200,3200,3200,3200,3200,3200,3200,3200,3200,3224,6192,6200,3240,3228,3228,3228,3228,3228,3228,3228,3228,3228,3228,3228,3228,3228,3238,6192,6178,6196,6196,6196,6196,6196,6196,6196,6196,6196,6196,6196,6196,6196,6196,6196,6177,0,0,0,0,0,0,0,0,0,0,0,0,0,0,0,0,0,0,0,0,0,0,0,0,0,0,0,0,0,0,0,0,0,0,0,0,0,0,0,0,0,0,0,0,0,0,0,0,0,0,0,0,0,0,0,0,0,0,0,0,0,0,0,0,0,0,0,0,0,0,0,0,0,0,0,0,0,0,0,0,0,0,0,0,0,0,0,0,0,0,0,0,0,0,0,0,0,0,0,0,0,0,0,0,0,0,0,0,0,0,0,0,0,0,0,0,0,0,0,0,0,0,0,0,0,0,0,0,0,0,0,0,0,0,0,0,0,0,0,0,0,0,0,0,0,0,0,0,0,0,0,0,0,0,0,0,0,0,0,0,0,0,0,0,0,0,0,0,0,0,0,0,0,0,0,0,0,0,0,0,0,0,0,0,0,0,0,0,0,0,0,0,0,0,0,0,0,0,0,0,0,0,0,0,0,0,0,0,0,0,0,0,0,0,0,0,0,0,0,0,0,0,0,0,0,0,0,0,0,0,0,0,0,0,0,0,0,0,0,0,0,0,0,0,0,0,0,0,0,0,0,0,0,0,0,0,0,0,0,0,0,0,0,0,0,0,0,0,0,0,0,0,0,0,0,0,0,0,0,0,0,0,0,0,0,0,0,0,0,0,0,0,0,0,0,0,0,0,0,0,0,0,0,0,0,0,0,0,0,0,0,0,0,0,0,0,0,0,0,0,0,0,0,0,0,0,0,0,0,0,0,0,0,0,0,0,0,0,0,0,0,0,0,0,0,0,0,0,0,0,0,0,0,0,0,0,0,0,0,0,0,0,0,0,0,0,0,0,0,0,0,0,0,0,0,0,0,0,0,0,0,0,0,0,0,0,0,0,0,0,0,0,0,0,0,0,0,0,0,0,0,0,0,0,0,0,0,0,0,0,0,0,0,0,0,0,0,0,0,0,0,0,0,0,0,0,0,0,0,0,0,0,0,0,0,0,0,0,0,0,0,0,0,0,0,0,0,0,0,0,0,0,0,0,0,0,0,0,0,0,0,0,0,0,0,0,0,0,0,0,0,0,0,0,0,0,0,0,0,0,0,0,0,0,0,0,0,0,0,0,0,0,0,0,0,0,0,0,0,0,0,0,0,0,0,0,0,0,0,0,0,0,0,0,0,0,0,0,0,0,0,0,0,0,0,0,0,0,0,0,0,0,0,0,0,0,0,0,0,0,0,0,0,0,0,0,0,0,0,0,0,0,0,0,0,0,0,0,0,0,0,0,0,0,0,0,0,0,0,0,0,0,0,0,0,0,0,0,0,0,0,0,0,0,0,0,0,0,0,0,0,0,0,0,0,0,0,0,0,0,0,0,0,0,0,0,0,0,0,0,0,0,0,0,0,0,0,0,0,0,0,0,0,0,0,0,0,0,0,0,0,0,0,0,0,0,0,0,0,0,0,0,0,0,0,0,0,0,0,0,0,0,0,0,0,0,0,0,0,0,0,0,0,0,0,0,0,0,0,0,0,0,0,0,0,0,0,0,0,0,0,0,0,0,0,0,0,0,0,0,0,0,0,0,0,0,0,0,5,0,0,0,0,0,0,0,0,0,0,0,0,0,0,0,0,5,0,0,0,0,0,0,0,0,0,0,0,0,0,0,0,0,5,0,0,0,0,0,0,0,0,0,0,0,0,0,0,0,0,5,0,0,0,0,0,0,0,0,0,0,0,0,0,0,0,0,5,0,0,0,0,0,0,0,0,0,0,0,0,0,0,0,0,5,0,0,0,0,0,0,0,0,0,0,0,0,0,0,0,0,5,0,0,0,0,0,0,0,0,0,0,0,0,0,0,0,0,5,0,0,0,0,0,0,0,0,0,0,0,0,0,0,0,0,5,0,0,0,0,0,0,0,0,0,0,0,0,0,0,0,0,5,0,0,0,0,0,0,0,0,0,0,0,0,0,0,0,0,0,0,0,0,0,0,0,0,0,0,0,0,0,0,0,0,0,0,0,0,0,0,0,0,0,0,0,0,0,0,0,0,0,0,0,0,0,0,0,0,0,0,0,0,0,0,0,0,0,0,0,0,0,0,0,0,0,0,0,0,0,0,0,0,0,0,0,0,0,0,0,0,0,0,0,0,0,0,0,0,0,0,0,0,0,0,0,0,0,0,0,0,0,0,0,0,0,0,0,0,0,0,0,0,0,0,0,0,0,0,0,0,0,0,0,0,0,0,0,0,0,0,0,0,0,0,0,0,0,0,0,0,0,0,0,0,0,0,0,0,0,0,0,0,0,0,0,0,0,0,0,0,0,0,0,0,0,0,0,0,0,0,0,0,0,0,0,0,0,0,0,0,0,0,0,0,0,0,0,0,0,0,0,0,0,0,0,0,0,0,0,0,0,0,0,0,0,0,0,0,0,0,0,0,0,0,0,0,0,0,0,0,0,0,0,0,0,0,0,0,0,0,0,0,0,0,0,0,0,0,0,0,0,0,0,0,0],
"events":[
null,
{"id":1,"name":"Bat","note":"","pages":[{"conditions":{"actorId":1,"actorValid":false,"itemId":1,"itemValid":false,"selfSwitchCh":"A","selfSwitchValid":false,"switch1Id":1,"switch1Valid":false,"switch2Id":1,"switch2Valid":false,"variableId":1,"variableValid":false,"variableValue":0},"directionFix":false,"image":{"tileId":0,"characterName":"Monster","direction":2,"pattern":1,"characterIndex":0},"list":[{"code":108,"indent":0,"parameters":["event sensor : 4"]},{"code":0,"indent":0,"parameters":[]}],"moveFrequency":5,"moveRoute":{"list":[{"code":0,"parameters":[]}],"repeat":true,"skippable":false,"wait":false},"moveSpeed":1,"moveType":1,"priorityType":1,"stepAnime":true,"through":false,"trigger":0,"walkAnime":true},{"conditions":{"actorId":1,"actorValid":false,"itemId":1,"itemValid":false,"selfSwitchCh":"D","selfSwitchValid":true,"switch1Id":1,"switch1Valid":false,"switch2Id":1,"switch2Valid":false,"variableId":1,"variableValid":false,"variableValue":0},"directionFix":false,"image":{"tileId":0,"characterName":"Monster","direction":2,"pattern":1,"characterIndex":0},"list":[{"code":108,"indent":0,"parameters":["indicator : EnemyNormal : 0 : 10"]},{"code":108,"indent":0,"parameters":["pulse_indicator : 0.005"]},{"code":108,"indent":0,"parameters":["range_indicator : 4"]},{"code":0,"indent":0,"parameters":[]}],"moveFrequency":5,"moveRoute":{"list":[{"code":0,"parameters":[]}],"repeat":true,"skippable":false,"wait":false},"moveSpeed":3,"moveType":2,"priorityType":1,"stepAnime":true,"through":false,"trigger":0,"walkAnime":true}],"x":12,"y":9},
{"id":2,"name":"Go go go","note":"","pages":[{"conditions":{"actorId":1,"actorValid":false,"itemId":1,"itemValid":false,"selfSwitchCh":"A","selfSwitchValid":false,"switch1Id":1,"switch1Valid":false,"switch2Id":1,"switch2Valid":false,"variableId":1,"variableValid":false,"variableValue":0},"directionFix":false,"image":{"tileId":0,"characterName":"Monster","direction":2,"pattern":1,"characterIndex":3},"list":[{"code":108,"indent":0,"parameters":["indicator : Gogogo : 0 : 10"]},{"code":108,"indent":0,"parameters":["pulse_indicator : 0.005"]},{"code":108,"indent":0,"parameters":["shake_indicator : 10"]},{"code":108,"indent":0,"parameters":["range_indicator : 4"]},{"code":250,"indent":0,"parameters":[{"name":"Cursor2","volume":90,"pitch":100,"pan":0}]},{"code":123,"indent":0,"parameters":["A",0]},{"code":0,"indent":0,"parameters":[]}],"moveFrequency":5,"moveRoute":{"list":[{"code":0,"parameters":[]}],"repeat":true,"skippable":false,"wait":false},"moveSpeed":1,"moveType":0,"priorityType":1,"stepAnime":true,"through":false,"trigger":0,"walkAnime":true},{"conditions":{"actorId":1,"actorValid":false,"itemId":1,"itemValid":false,"selfSwitchCh":"A","selfSwitchValid":true,"switch1Id":1,"switch1Valid":false,"switch2Id":1,"switch2Valid":false,"variableId":1,"variableValid":false,"variableValue":0},"directionFix":false,"image":{"tileId":0,"characterName":"Monster","direction":2,"pattern":1,"characterIndex":3},"list":[{"code":108,"indent":0,"parameters":["indicator : Gogogo : 0 : 10"]},{"code":108,"indent":0,"parameters":["pulse_indicator : 0.005"]},{"code":108,"indent":0,"parameters":["shake_indicator : 40"]},{"code":108,"indent":0,"parameters":["range_indicator : 4"]},{"code":250,"indent":0,"parameters":[{"name":"Cursor2","volume":90,"pitch":100,"pan":0}]},{"code":123,"indent":0,"parameters":["A",1]},{"code":0,"indent":0,"parameters":[]}],"moveFrequency":5,"moveRoute":{"list":[{"code":0,"parameters":[]}],"repeat":true,"skippable":false,"wait":false},"moveSpeed":1,"moveType":0,"priorityType":1,"stepAnime":true,"through":false,"trigger":0,"walkAnime":true}],"x":3,"y":9},
{"id":3,"name":"Star","note":"","pages":[{"conditions":{"actorId":1,"actorValid":false,"itemId":1,"itemValid":false,"selfSwitchCh":"A","selfSwitchValid":false,"switch1Id":1,"switch1Valid":false,"switch2Id":1,"switch2Valid":false,"variableId":1,"variableValid":false,"variableValue":0},"directionFix":false,"image":{"tileId":0,"characterName":"Nature","direction":2,"pattern":1,"characterIndex":6},"list":[{"code":108,"indent":0,"parameters":["indicator : Star : 0 : 0"]},{"code":108,"indent":0,"parameters":["rotation_indicator : 0.02"]},{"code":108,"indent":0,"parameters":["pulse_indicator : 0.008"]},{"code":108,"indent":0,"parameters":["range_indicator : 4"]},{"code":250,"indent":0,"parameters":[{"name":"Cursor2","volume":90,"pitch":100,"pan":0}]},{"code":123,"indent":0,"parameters":["A",0]},{"code":0,"indent":0,"parameters":[]}],"moveFrequency":5,"moveRoute":{"list":[{"code":0,"parameters":[]}],"repeat":true,"skippable":false,"wait":false},"moveSpeed":1,"moveType":0,"priorityType":1,"stepAnime":true,"through":false,"trigger":0,"walkAnime":true},{"conditions":{"actorId":1,"actorValid":false,"itemId":1,"itemValid":false,"selfSwitchCh":"A","selfSwitchValid":true,"switch1Id":1,"switch1Valid":false,"switch2Id":1,"switch2Valid":false,"variableId":1,"variableValid":false,"variableValue":0},"directionFix":false,"image":{"tileId":0,"characterName":"Nature","direction":2,"pattern":1,"characterIndex":6},"list":[{"code":108,"indent":0,"parameters":["indicator : MagicCircle : -3 : 80"]},{"code":108,"indent":0,"parameters":["rotation_indicator : 0.05"]},{"code":108,"indent":0,"parameters":["range_indicator : 4"]},{"code":250,"indent":0,"parameters":[{"name":"Cursor2","volume":90,"pitch":100,"pan":0}]},{"code":123,"indent":0,"parameters":["A",1]},{"code":0,"indent":0,"parameters":[]}],"moveFrequency":5,"moveRoute":{"list":[{"code":0,"parameters":[]}],"repeat":true,"skippable":false,"wait":false},"moveSpeed":1,"moveType":0,"priorityType":1,"stepAnime":true,"through":false,"trigger":0,"walkAnime":true}],"x":2,"y":2},
{"id":4,"name":"Hell","note":"","pages":[{"conditions":{"actorId":1,"actorValid":false,"itemId":1,"itemValid":false,"selfSwitchCh":"A","selfSwitchValid":false,"switch1Id":1,"switch1Valid":false,"switch2Id":1,"switch2Valid":false,"variableId":1,"variableValid":false,"variableValue":0},"directionFix":false,"image":{"tileId":0,"characterName":"Nature","direction":2,"pattern":1,"characterIndex":4},"list":[{"code":108,"indent":0,"parameters":["indicator : Hell : 20 : 10"]},{"code":108,"indent":0,"parameters":["animated_indicator : 3 : 60"]},{"code":250,"indent":0,"parameters":[{"name":"Cursor2","volume":90,"pitch":100,"pan":0}]},{"code":123,"indent":0,"parameters":["A",0]},{"code":0,"indent":0,"parameters":[]}],"moveFrequency":5,"moveRoute":{"list":[{"code":0,"parameters":[]}],"repeat":true,"skippable":false,"wait":false},"moveSpeed":1,"moveType":0,"priorityType":1,"stepAnime":true,"through":false,"trigger":0,"walkAnime":true},{"conditions":{"actorId":1,"actorValid":false,"itemId":1,"itemValid":false,"selfSwitchCh":"A","selfSwitchValid":true,"switch1Id":1,"switch1Valid":false,"switch2Id":1,"switch2Valid":false,"variableId":1,"variableValid":false,"variableValue":0},"directionFix":false,"image":{"tileId":0,"characterName":"Nature","direction":2,"pattern":1,"characterIndex":4},"list":[{"code":108,"indent":0,"parameters":["indicator : Hell : 20 : 10"]},{"code":108,"indent":0,"parameters":["animated_indicator : 3 : 7"]},{"code":250,"indent":0,"parameters":[{"name":"Cursor2","volume":90,"pitch":100,"pan":0}]},{"code":123,"indent":0,"parameters":["A",1]},{"code":0,"indent":0,"parameters":[]}],"moveFrequency":5,"moveRoute":{"list":[{"code":0,"parameters":[]}],"repeat":true,"skippable":false,"wait":false},"moveSpeed":1,"moveType":0,"priorityType":1,"stepAnime":true,"through":false,"trigger":0,"walkAnime":true}],"x":13,"y":6},
{"id":5,"name":"Quest","note":"","pages":[{"conditions":{"actorId":1,"actorValid":false,"itemId":1,"itemValid":false,"selfSwitchCh":"A","selfSwitchValid":false,"switch1Id":1,"switch1Valid":false,"switch2Id":1,"switch2Valid":false,"variableId":1,"variableValid":false,"variableValue":0},"directionFix":false,"image":{"tileId":0,"characterName":"People1","direction":2,"pattern":1,"characterIndex":1},"list":[{"code":108,"indent":0,"parameters":["indicator : Quest_A : 0 : 20"]},{"code":108,"indent":0,"parameters":["float_indicator"]},{"code":250,"indent":0,"parameters":[{"name":"Cursor2","volume":90,"pitch":100,"pan":0}]},{"code":123,"indent":0,"parameters":["A",0]},{"code":0,"indent":0,"parameters":[]}],"moveFrequency":5,"moveRoute":{"list":[{"code":0,"parameters":[]}],"repeat":true,"skippable":false,"wait":false},"moveSpeed":1,"moveType":1,"priorityType":1,"stepAnime":true,"through":false,"trigger":0,"walkAnime":true},{"conditions":{"actorId":1,"actorValid":false,"itemId":1,"itemValid":false,"selfSwitchCh":"A","selfSwitchValid":true,"switch1Id":1,"switch1Valid":false,"switch2Id":1,"switch2Valid":false,"variableId":1,"variableValid":false,"variableValue":0},"directionFix":false,"image":{"tileId":0,"characterName":"People1","direction":2,"pattern":1,"characterIndex":3},"list":[{"code":108,"indent":0,"parameters":["indicator : Quest_B : 0 : 20"]},{"code":108,"indent":0,"parameters":["float_indicator"]},{"code":250,"indent":0,"parameters":[{"name":"Cursor2","volume":90,"pitch":100,"pan":0}]},{"code":123,"indent":0,"parameters":["A",1]},{"code":0,"indent":0,"parameters":[]}],"moveFrequency":5,"moveRoute":{"list":[{"code":0,"parameters":[]}],"repeat":true,"skippable":false,"wait":false},"moveSpeed":1,"moveType":1,"priorityType":1,"stepAnime":true,"through":false,"trigger":0,"walkAnime":true}],"x":2,"y":6},
{"id":6,"name":"Flame","note":"","pages":[{"conditions":{"actorId":1,"actorValid":false,"itemId":1,"itemValid":false,"selfSwitchCh":"A","selfSwitchValid":false,"switch1Id":1,"switch1Valid":false,"switch2Id":1,"switch2Valid":false,"variableId":1,"variableValid":false,"variableValue":0},"directionFix":false,"image":{"tileId":0,"characterName":"Nature","direction":2,"pattern":1,"characterIndex":7},"list":[{"code":108,"indent":0,"parameters":["indicator : flame : 0 : 60"]},{"code":108,"indent":0,"parameters":["animated_indicator : 3 : 10"]},{"code":108,"indent":0,"parameters":["range_indicator : 5"]},{"code":250,"indent":0,"parameters":[{"name":"Cursor2","volume":90,"pitch":100,"pan":0}]},{"code":123,"indent":0,"parameters":["A",0]},{"code":0,"indent":0,"parameters":[]}],"moveFrequency":5,"moveRoute":{"list":[{"code":0,"parameters":[]}],"repeat":true,"skippable":false,"wait":false},"moveSpeed":1,"moveType":0,"priorityType":1,"stepAnime":true,"through":false,"trigger":0,"walkAnime":true},{"conditions":{"actorId":1,"actorValid":false,"itemId":1,"itemValid":false,"selfSwitchCh":"A","selfSwitchValid":true,"switch1Id":1,"switch1Valid":false,"switch2Id":1,"switch2Valid":false,"variableId":1,"variableValid":false,"variableValue":0},"directionFix":false,"image":{"tileId":0,"characterName":"Nature","direction":2,"pattern":1,"characterIndex":7},"list":[{"code":108,"indent":0,"parameters":["indicator : flame : 0 : 90"]},{"code":108,"indent":0,"parameters":["animated_indicator : 3 : 10"]},{"code":108,"indent":0,"parameters":["blendmode_indicator : 1"]},{"code":108,"indent":0,"parameters":["range_indicator : 5"]},{"code":250,"indent":0,"parameters":[{"name":"Cursor2","volume":90,"pitch":100,"pan":0}]},{"code":123,"indent":0,"parameters":["A",1]},{"code":0,"indent":0,"parameters":[]}],"moveFrequency":5,"moveRoute":{"list":[{"code":0,"parameters":[]}],"repeat":true,"skippable":false,"wait":false},"moveSpeed":1,"moveType":0,"priorityType":1,"stepAnime":true,"through":false,"trigger":0,"walkAnime":true}],"x":10,"y":9},
{"id":7,"name":"Item Shop","note":"","pages":[{"conditions":{"actorId":1,"actorValid":false,"itemId":1,"itemValid":false,"selfSwitchCh":"A","selfSwitchValid":false,"switch1Id":1,"switch1Valid":false,"switch2Id":1,"switch2Valid":false,"variableId":1,"variableValid":false,"variableValue":0},"directionFix":false,"image":{"tileId":0,"characterName":"People1","direction":2,"pattern":1,"characterIndex":5},"list":[{"code":108,"indent":0,"parameters":["indicator : ShopItem : 0 : 20"]},{"code":108,"indent":0,"parameters":["float_indicator"]},{"code":302,"indent":0,"parameters":[0,1,0,0,false]},{"code":605,"indent":0,"parameters":[0,2,0,0]},{"code":605,"indent":0,"parameters":[0,4,0,0]},{"code":605,"indent":0,"parameters":[0,7,0,0]},{"code":605,"indent":0,"parameters":[0,8,0,0]},{"code":0,"indent":0,"parameters":[]}],"moveFrequency":5,"moveRoute":{"list":[{"code":0,"parameters":[]}],"repeat":true,"skippable":false,"wait":false},"moveSpeed":1,"moveType":0,"priorityType":1,"stepAnime":true,"through":false,"trigger":0,"walkAnime":true}],"x":5,"y":2},
{"id":8,"name":"Weapon Shop","note":"","pages":[{"conditions":{"actorId":1,"actorValid":false,"itemId":1,"itemValid":false,"selfSwitchCh":"A","selfSwitchValid":false,"switch1Id":1,"switch1Valid":false,"switch2Id":1,"switch2Valid":false,"variableId":1,"variableValid":false,"variableValue":0},"directionFix":false,"image":{"tileId":0,"characterName":"People1","direction":2,"pattern":1,"characterIndex":2},"list":[{"code":108,"indent":0,"parameters":["indicator : ShopArmor : 0 : 20"]},{"code":108,"indent":0,"parameters":["float_indicator"]},{"code":302,"indent":0,"parameters":[1,1,0,0,false]},{"code":605,"indent":0,"parameters":[1,2,0,0]},{"code":605,"indent":0,"parameters":[1,3,0,0]},{"code":605,"indent":0,"parameters":[1,4,0,0]},{"code":0,"indent":0,"parameters":[]}],"moveFrequency":5,"moveRoute":{"list":[{"code":0,"parameters":[]}],"repeat":true,"skippable":false,"wait":false},"moveSpeed":1,"moveType":0,"priorityType":1,"stepAnime":true,"through":false,"trigger":0,"walkAnime":true}],"x":8,"y":2},
{"id":9,"name":"Armor Shop","note":"","pages":[{"conditions":{"actorId":1,"actorValid":false,"itemId":1,"itemValid":false,"selfSwitchCh":"A","selfSwitchValid":false,"switch1Id":1,"switch1Valid":false,"switch2Id":1,"switch2Valid":false,"variableId":1,"variableValid":false,"variableValue":0},"directionFix":false,"image":{"tileId":0,"characterName":"People1","direction":2,"pattern":1,"characterIndex":4},"list":[{"code":108,"indent":0,"parameters":["indicator : ShopWeapon : 0 : 20"]},{"code":108,"indent":0,"parameters":["float_indicator"]},{"code":302,"indent":0,"parameters":[2,1,0,0,false]},{"code":605,"indent":0,"parameters":[2,2,0,0]},{"code":605,"indent":0,"parameters":[2,3,0,0]},{"code":605,"indent":0,"parameters":[2,4,0,0]},{"code":0,"indent":0,"parameters":[]}],"moveFrequency":5,"moveRoute":{"list":[{"code":0,"parameters":[]}],"repeat":true,"skippable":false,"wait":false},"moveSpeed":1,"moveType":0,"priorityType":1,"stepAnime":true,"through":false,"trigger":0,"walkAnime":true}],"x":11,"y":2},
{"id":10,"name":"Variable","note":"","pages":[{"conditions":{"actorId":1,"actorValid":false,"itemId":1,"itemValid":false,"selfSwitchCh":"A","selfSwitchValid":false,"switch1Id":1,"switch1Valid":false,"switch2Id":1,"switch2Valid":false,"variableId":1,"variableValid":false,"variableValue":0},"directionFix":false,"image":{"tileId":0,"characterName":"Nature","direction":2,"pattern":1,"characterIndex":5},"list":[{"code":108,"indent":0,"parameters":["indicator : Food : 0 : 0"]},{"code":108,"indent":0,"parameters":["variable_indicator : 30"]},{"code":108,"indent":0,"parameters":["range_indicator : 4"]},{"code":250,"indent":0,"parameters":[{"name":"Cursor2","volume":90,"pitch":100,"pan":0}]},{"code":122,"indent":0,"parameters":[30,30,1,0,100]},{"code":0,"indent":0,"parameters":[]}],"moveFrequency":5,"moveRoute":{"list":[{"code":0,"parameters":[]}],"repeat":true,"skippable":false,"wait":false},"moveSpeed":1,"moveType":0,"priorityType":1,"stepAnime":true,"through":false,"trigger":0,"walkAnime":true}],"x":14,"y":9},
{"id":11,"name":"Blah Blah Blah","note":"","pages":[{"conditions":{"actorId":1,"actorValid":false,"itemId":1,"itemValid":false,"selfSwitchCh":"A","selfSwitchValid":false,"switch1Id":1,"switch1Valid":false,"switch2Id":1,"switch2Valid":false,"variableId":1,"variableValid":false,"variableValue":0},"directionFix":false,"image":{"tileId":0,"characterName":"People1","direction":2,"pattern":1,"characterIndex":0},"list":[{"code":108,"indent":0,"parameters":["indicator :  : 0 : 0"]},{"code":108,"indent":0,"parameters":["text_indicator : Blah Blah Blah"]},{"code":108,"indent":0,"parameters":["fontsize_indicator : 30"]},{"code":108,"indent":0,"parameters":["rotation_indicator : -0.01"]},{"code":108,"indent":0,"parameters":["range_indicator : 4"]},{"code":250,"indent":0,"parameters":[{"name":"Cursor2","volume":90,"pitch":100,"pan":0}]},{"code":123,"indent":0,"parameters":["A",0]},{"code":0,"indent":0,"parameters":[]}],"moveFrequency":5,"moveRoute":{"list":[{"code":0,"parameters":[]}],"repeat":true,"skippable":false,"wait":false},"moveSpeed":1,"moveType":0,"priorityType":1,"stepAnime":true,"through":false,"trigger":0,"walkAnime":true},{"conditions":{"actorId":1,"actorValid":false,"itemId":1,"itemValid":false,"selfSwitchCh":"A","selfSwitchValid":true,"switch1Id":1,"switch1Valid":false,"switch2Id":1,"switch2Valid":false,"variableId":1,"variableValid":false,"variableValue":0},"directionFix":false,"image":{"tileId":0,"characterName":"People1","direction":2,"pattern":1,"characterIndex":0},"list":[{"code":108,"indent":0,"parameters":["indicator :  : 0 : 0"]},{"code":108,"indent":0,"parameters":["text_indicator : Whatever!"]},{"code":108,"indent":0,"parameters":["fontsize_indicator : 18"]},{"code":108,"indent":0,"parameters":["rotation_indicator : -0.001"]},{"code":108,"indent":0,"parameters":["pulse_indicator : 0.1"]},{"code":108,"indent":0,"parameters":["range_indicator : 4"]},{"code":250,"indent":0,"parameters":[{"name":"Cursor2","volume":90,"pitch":100,"pan":0}]},{"code":123,"indent":0,"parameters":["A",1]},{"code":0,"indent":0,"parameters":[]}],"moveFrequency":5,"moveRoute":{"list":[{"code":0,"parameters":[]}],"repeat":true,"skippable":false,"wait":false},"moveSpeed":1,"moveType":0,"priorityType":1,"stepAnime":true,"through":false,"trigger":0,"walkAnime":true}],"x":6,"y":9},
{"id":12,"name":"EV012","note":"","pages":[{"conditions":{"actorId":1,"actorValid":false,"itemId":1,"itemValid":false,"selfSwitchCh":"A","selfSwitchValid":false,"switch1Id":1,"switch1Valid":false,"switch2Id":1,"switch2Valid":false,"variableId":1,"variableValid":false,"variableValue":0},"directionFix":false,"image":{"tileId":0,"characterName":"People1","direction":2,"pattern":1,"characterIndex":3},"list":[{"code":108,"indent":0,"parameters":["indicator :  : 0 : 0"]},{"code":108,"indent":0,"parameters":["text_indicator : Clear Indicators"]},{"code":102,"indent":0,"parameters":[["Clear Shop Events","Clear Other Events"],1,0,2,0]},{"code":402,"indent":0,"parameters":[0,"Clear Shop Events"]},{"code":356,"indent":1,"parameters":["clear_indicator : 7"]},{"code":356,"indent":1,"parameters":["clear_indicator : 8"]},{"code":356,"indent":1,"parameters":["clear_indicator : 9"]},{"code":0,"indent":1,"parameters":[]},{"code":402,"indent":0,"parameters":[1,"Clear Other Events"]},{"code":356,"indent":1,"parameters":["clear_indicator : 1"]},{"code":356,"indent":1,"parameters":["clear_indicator : 2"]},{"code":356,"indent":1,"parameters":["clear_indicator : 3"]},{"code":356,"indent":1,"parameters":["clear_indicator : 4"]},{"code":356,"indent":1,"parameters":["clear_indicator : 5"]},{"code":356,"indent":1,"parameters":["clear_indicator : 6"]},{"code":356,"indent":1,"parameters":["clear_indicator : 10"]},{"code":356,"indent":1,"parameters":["clear_indicator : 11"]},{"code":0,"indent":1,"parameters":[]},{"code":404,"indent":0,"parameters":[]},{"code":0,"indent":0,"parameters":[]}],"moveFrequency":5,"moveRoute":{"list":[{"code":0,"parameters":[]}],"repeat":true,"skippable":false,"wait":false},"moveSpeed":3,"moveType":0,"priorityType":1,"stepAnime":true,"through":false,"trigger":0,"walkAnime":true}],"x":5,"y":4},
{"id":13,"name":"EV013","note":"","pages":[{"conditions":{"actorId":1,"actorValid":false,"itemId":1,"itemValid":false,"selfSwitchCh":"A","selfSwitchValid":false,"switch1Id":1,"switch1Valid":false,"switch2Id":1,"switch2Valid":false,"variableId":1,"variableValid":false,"variableValue":0},"directionFix":false,"image":{"tileId":0,"characterName":"People1","direction":2,"pattern":1,"characterIndex":3},"list":[{"code":108,"indent":0,"parameters":["indicator :  : 0 : 0"]},{"code":108,"indent":0,"parameters":["text_indicator : Hide & Show"]},{"code":102,"indent":0,"parameters":[["Enable","Disable"],1,0,2,0]},{"code":402,"indent":0,"parameters":[0,"Enable"]},{"code":356,"indent":1,"parameters":["show_all_indicators"]},{"code":0,"indent":1,"parameters":[]},{"code":402,"indent":0,"parameters":[1,"Disable"]},{"code":356,"indent":1,"parameters":["hide_all_indicators"]},{"code":0,"indent":1,"parameters":[]},{"code":404,"indent":0,"parameters":[]},{"code":0,"indent":0,"parameters":[]}],"moveFrequency":5,"moveRoute":{"list":[{"code":0,"parameters":[]}],"repeat":true,"skippable":false,"wait":false},"moveSpeed":3,"moveType":0,"priorityType":1,"stepAnime":true,"through":false,"trigger":0,"walkAnime":true}],"x":8,"y":4},
{"id":14,"name":"EV014","note":"","pages":[{"conditions":{"actorId":1,"actorValid":false,"itemId":1,"itemValid":false,"selfSwitchCh":"A","selfSwitchValid":false,"switch1Id":1,"switch1Valid":false,"switch2Id":1,"switch2Valid":false,"variableId":1,"variableValid":false,"variableValue":0},"directionFix":false,"image":{"tileId":0,"characterName":"People1","direction":2,"pattern":1,"characterIndex":3},"list":[{"code":108,"indent":0,"parameters":["indicator :  : 0 : 0"]},{"code":108,"indent":0,"parameters":["text_indicator : Set New Indicators"]},{"code":102,"indent":0,"parameters":[["Set New Indicators","Cancel"],1,0,2,0]},{"code":402,"indent":0,"parameters":[0,"Set New Indicators"]},{"code":356,"indent":1,"parameters":["show_all_indicators"]},{"code":356,"indent":1,"parameters":["indicator : 1 : NewIndicator : 0 : 0"]},{"code":356,"indent":1,"parameters":["indicator : 2 : NewIndicator : 0 : 0"]},{"code":356,"indent":1,"parameters":["indicator : 3 : NewIndicator : 0 : 0"]},{"code":356,"indent":1,"parameters":["indicator : 4 : NewIndicator : 0 : 0"]},{"code":356,"indent":1,"parameters":["indicator : 5 : NewIndicator : 0 : 0"]},{"code":356,"indent":1,"parameters":["indicator : 6 : NewIndicator : 0 : 0"]},{"code":356,"indent":1,"parameters":["indicator : 7 : NewIndicator : 0 : 0"]},{"code":356,"indent":1,"parameters":["indicator : 8 : NewIndicator : 0 : 0"]},{"code":356,"indent":1,"parameters":["indicator : 9 : NewIndicator : 0 : 0"]},{"code":356,"indent":1,"parameters":["indicator : 10 : NewIndicator : 0 : 0"]},{"code":356,"indent":1,"parameters":["indicator : 11 : NewIndicator : 0 : 0"]},{"code":0,"indent":1,"parameters":[]},{"code":402,"indent":0,"parameters":[1,"Cancel"]},{"code":0,"indent":1,"parameters":[]},{"code":404,"indent":0,"parameters":[]},{"code":0,"indent":0,"parameters":[]}],"moveFrequency":5,"moveRoute":{"list":[{"code":0,"parameters":[]}],"repeat":true,"skippable":false,"wait":false},"moveSpeed":3,"moveType":0,"priorityType":1,"stepAnime":true,"through":false,"trigger":0,"walkAnime":true}],"x":11,"y":4},
{"id":15,"name":"EV015","note":"","pages":[{"conditions":{"actorId":1,"actorValid":false,"itemId":1,"itemValid":false,"selfSwitchCh":"A","selfSwitchValid":false,"switch1Id":1,"switch1Valid":false,"switch2Id":1,"switch2Valid":false,"variableId":1,"variableValid":false,"variableValue":0},"directionFix":true,"image":{"tileId":0,"characterName":"!Door2","direction":4,"pattern":1,"characterIndex":0},"list":[{"code":250,"indent":0,"parameters":[{"name":"Ice1","volume":90,"pitch":150,"pan":0}]},{"code":201,"indent":0,"parameters":[0,8,10,24,4,0]},{"code":0,"indent":0,"parameters":[]}],"moveFrequency":3,"moveRoute":{"list":[{"code":0,"parameters":[]}],"repeat":true,"skippable":false,"wait":false},"moveSpeed":3,"moveType":0,"priorityType":0,"stepAnime":true,"through":false,"trigger":2,"walkAnime":true}],"x":8,"y":7},
null,
null
]
}